frame0000
117.552391 71.973907 10 10
111.608757 94.931862 10 10
118.251724 168.012466 10 10
135.000153 239.999451 10 10
129.012665 260.023804 10 10
174.989487 268.990387 10 10
192.998566 257.002808 10 10
frame0001
118.132172 71.902023 10 10
112.270195 94.960617 10 10
118.596886 168.017822 10 10
135.232727 240.123856 10 10
129.207916 260.028381 10 10
175.028702 269.076904 10 10
193.116928 256.992859 10 10
frame0002
118.767662 71.877693 10 10
112.640556 94.845047 10 10
118.597549 168.010101 10 10
135.232040 240.120956 10 10
129.019653 260.008606 10 10
175.033249 269.071808 10 10
193.111816 257.024414 10 10
frame0003
119.162743 71.651764 10 10
113.070122 94.884895 10 10
119.065346 168.008530 10 10
135.217941 240.193314 10 10
129.098938 260.033203 10 10
175.033585 269.068298 10 10
193.204437 257.025452 10 10
frame0004
119.740608 71.620537 10 10
113.538445 94.744316 10 10
119.297539 167.996185 10 10
135.218384 240.195206 10 10
129.293182 260.128296 10 10
175.035141 269.067688 10 10
193.205383 257.026306 10 10
frame0005
120.120483 71.769646 10 10
113.836952 94.871399 10 10
119.422974 167.997421 10 10
135.301926 240.103119 10 10
129.175781 260.140686 10 10
175.052811 269.099213 10 10
193.227844 257.114838 10 10
frame0006
120.613007 71.576881 10 10
114.272278 94.696129 10 10
119.719963 168.008118 10 10
135.419052 240.111084 10 10
129.176453 260.143677 10 10
175.055328 269.096283 10 10
193.230209 257.115540 10 10
frame0007
120.894653 71.756851 10 10
114.539742 94.703262 10 10
119.714890 168.001907 10 10
135.429306 240.242020 10 10
129.174469 260.142639 10 10
175.012863 269.237183 10 10
193.230530 257.147461 10 10
frame0008
121.594978 71.565933 10 10
114.834892 94.661484 10 10
119.935905 167.763931 10 10
135.441010 240.080429 10 10
129.173981 260.144775 10 10
175.006149 269.252777 10 10
193.354752 257.149872 10 10
frame0009
121.855682 71.567055 10 10
115.259140 94.679375 10 10
120.207184 167.965088 10 10
135.254913 240.075272 10 10
129.173538 260.140991 10 10
174.981354 269.271332 10 10
193.215622 257.189819 10 10
frame0010
122.362755 71.667900 10 10
115.521461 94.910515 10 10
120.212311 167.960358 10 10
135.255295 240.076263 10 10
129.179291 260.140320 10 10
174.981537 269.270447 10 10
193.214264 257.189697 10 10
frame0011
122.610664 71.656700 10 10
115.764359 94.626976 10 10
120.438667 167.965363 10 10
135.246918 240.080246 10 10
129.172241 260.140167 10 10
174.981018 269.270416 10 10
193.212967 257.189575 10 10
frame0012
122.802193 71.704239 10 10
116.003654 94.753433 10 10
120.698448 167.966263 10 10
135.255280 240.080475 10 10
129.171082 260.138672 10 10
174.868179 269.235443 10 10
193.209457 257.190002 10 10
frame0013
123.283760 71.540718 10 10
116.381729 94.720650 10 10
120.705620 167.965271 10 10
135.511307 240.082458 10 10
129.139786 260.155853 10 10
174.866837 269.235260 10 10
193.206406 257.189575 10 10
frame0014
123.267128 71.498482 10 10
116.643936 94.725388 10 10
120.943817 168.206711 10 10
135.292496 240.180954 10 10
129.141464 260.159851 10 10
174.868347 269.234833 10 10
193.208679 257.190033 10 10
frame0015
123.820847 71.713341 10 10
116.968964 94.625961 10 10
120.942818 168.199219 10 10
135.499466 240.080215 10 10
129.142776 260.162262 10 10
174.873718 269.467163 10 10
193.202271 257.227234 10 10
frame0016
124.195747 71.591896 10 10
117.111526 94.796410 10 10
121.170258 168.196259 10 10
135.490311 240.178864 10 10
129.170242 260.446564 10 10
174.860657 269.415222 10 10
193.203918 257.226257 10 10
frame0017
124.589577 71.828064 10 10
117.364914 94.799973 10 10
121.478073 168.188599 10 10
135.481812 240.417114 10 10
129.171051 260.446533 10 10
174.854950 269.427124 10 10
193.207108 257.323761 10 10
frame0018
124.685669 71.872261 10 10
117.721230 94.742569 10 10
121.642235 168.211990 10 10
135.482025 240.416687 10 10
129.170990 260.446320 10 10
174.846054 269.443726 10 10
193.202652 257.533630 10 10
frame0019
125.040451 71.880829 10 10
118.077599 94.824829 10 10
121.731804 168.491409 10 10
135.480682 240.416855 10 10
129.171188 260.446320 10 10
174.844833 269.443695 10 10
193.202667 257.534363 10 10
frame0020
125.356926 72.020302 10 10
118.334496 94.937981 10 10
121.959267 168.494629 10 10
135.480591 240.419006 10 10
129.171661 260.454468 10 10
175.013885 269.599152 10 10
193.315353 257.591492 10 10
frame0021
125.597054 72.098679 10 10
118.672752 95.105011 10 10
122.116631 168.581314 10 10
135.480576 240.418686 10 10
129.171371 260.454468 10 10
174.854401 269.566803 10 10
193.396622 257.615845 10 10
frame0022
125.756935 72.270203 10 10
118.779434 95.105927 10 10
122.125511 168.584808 10 10
135.578598 240.414352 10 10
129.171738 260.454773 10 10
174.898605 269.562958 10 10
193.396896 257.616364 10 10
frame0023
126.079796 72.115768 10 10
118.993141 95.085365 10 10
122.377045 168.837952 10 10
135.662552 240.596954 10 10
129.172089 260.454834 10 10
174.897964 269.562958 10 10
193.395355 257.615967 10 10
frame0024
126.317093 72.229897 10 10
119.130058 95.260674 10 10
122.375275 168.841751 10 10
135.662735 240.597397 10 10
129.171936 260.455170 10 10
174.893875 269.589417 10 10
193.409576 257.859192 10 10
frame0025
126.729858 72.228394 10 10
119.347878 95.177216 10 10
122.676132 168.576630 10 10
135.662842 240.596878 10 10
129.172180 260.455475 10 10
174.894791 269.589447 10 10
193.394073 257.615662 10 10
frame0026
126.940216 72.284584 10 10
119.638206 95.186943 10 10
122.691116 168.647064 10 10
135.658386 240.714630 10 10
129.172089 260.455505 10 10
174.895447 269.588989 10 10
193.410660 257.853607 10 10
frame0027
126.978256 72.242722 10 10
119.998192 95.329918 10 10
122.692024 168.646454 10 10
135.690262 240.721161 10 10
129.153778 260.657410 10 10
174.895142 269.590393 10 10
193.419830 257.629822 10 10
frame0028
127.311241 72.374443 10 10
120.236351 95.345253 10 10
122.916687 168.960693 10 10
135.688492 240.957855 10 10
129.153992 260.657135 10 10
174.840881 269.740845 10 10
193.409683 257.872559 10 10
frame0029
127.731522 72.377930 10 10
120.332214 95.349876 10 10
122.930489 168.958084 10 10
135.688934 240.734818 10 10
129.148132 260.655029 10 10
174.837341 269.739075 10 10
193.406525 257.871643 10 10
frame0030
127.889488 72.508263 10 10
120.630966 95.379730 10 10
122.923317 169.186630 10 10
135.696228 240.847733 10 10
129.147720 260.654785 10 10
174.834930 269.765350 10 10
193.406448 257.881531 10 10
frame0031
128.200851 72.640007 10 10
120.756111 95.530594 10 10
123.188782 169.128189 10 10
135.690964 241.088425 10 10
129.149261 260.877930 10 10
174.879593 269.886841 10 10
193.633987 258.067993 10 10
frame0032
128.455444 72.642975 10 10
121.061440 95.549377 10 10
123.264481 169.361603 10 10
135.690613 241.090088 10 10
129.156860 260.878510 10 10
174.879456 269.887085 10 10
193.462494 258.065552 10 10
frame0033
128.726486 72.690407 10 10
121.265388 95.610214 10 10
123.291473 169.129608 10 10
135.690369 241.089478 10 10
129.135910 260.797791 10 10
174.867966 269.895630 10 10
193.461563 258.073029 10 10
frame0034
129.201721 72.681992 10 10
121.653664 95.603859 10 10
123.577805 169.391617 10 10
135.700928 241.304306 10 10
128.967316 260.788513 10 10
174.889496 269.937317 10 10
193.462097 258.075989 10 10
frame0035
129.547302 72.887009 10 10
121.860619 95.571266 10 10
123.765190 169.443787 10 10
135.681274 241.128082 10 10
128.958328 260.780487 10 10
174.871368 269.972931 10 10
193.405945 258.016418 10 10
frame0036
129.781158 72.653564 10 10
122.096840 95.696625 10 10
123.856895 169.450882 10 10
135.834778 241.235565 10 10
129.156677 260.784790 10 10
174.755875 269.929169 10 10
193.405167 258.012329 10 10
frame0037
130.049484 72.893738 10 10
122.454185 95.597755 10 10
123.928719 169.480331 10 10
135.833923 241.236130 10 10
128.955933 260.776855 10 10
174.870651 269.970245 10 10
193.403778 258.013367 10 10
frame0038
130.356216 72.891556 10 10
122.760643 95.579826 10 10
124.000305 169.482605 10 10
135.833939 241.236176 10 10
128.955872 260.776978 10 10
174.869568 269.968994 10 10
193.403763 258.014038 10 10
frame0039
130.879715 72.900261 10 10
123.071785 95.572838 10 10
124.120461 169.507401 10 10
135.874680 241.239944 10 10
128.955414 260.777679 10 10
174.866013 269.968781 10 10
193.401550 258.012512 10 10
frame0040
131.375061 72.919098 10 10
123.558105 95.704475 10 10
124.396698 169.423248 10 10
135.875015 241.239349 10 10
128.955505 260.777679 10 10
174.865814 269.968475 10 10
193.401169 258.011169 10 10
frame0041
131.665512 72.943390 10 10
123.857346 95.709839 10 10
124.718246 169.531570 10 10
135.873962 241.238800 10 10
128.960938 260.781036 10 10
174.756592 269.913757 10 10
193.401306 258.011841 10 10
frame0042
132.252197 72.924644 10 10
124.173386 96.056396 10 10
124.810349 169.570282 10 10
135.875427 241.238754 10 10
128.955017 260.778717 10 10
174.821121 269.950867 10 10
193.400818 258.012268 10 10
frame0043
132.704086 73.124245 10 10
124.625885 95.791992 10 10
124.943321 169.586060 10 10
135.874802 241.239105 10 10
128.954987 260.778748 10 10
174.820709 269.950378 10 10
193.400818 258.012512 10 10
frame0044
132.947754 73.130905 10 10
124.883705 95.987000 10 10
125.266708 169.569275 10 10
135.874405 241.239182 10 10
128.941742 260.825378 10 10
174.820419 269.950562 10 10
193.400726 258.011963 10 10
frame0045
133.430862 73.125038 10 10
125.380196 95.938080 10 10
125.378540 169.666565 10 10
135.874146 241.239578 10 10
128.947968 260.834320 10 10
174.833740 269.934509 10 10
193.396881 258.008606 10 10
frame0046
133.707184 73.366348 10 10
125.728317 96.118530 10 10
125.780144 169.892334 10 10
135.874634 241.238968 10 10
128.947723 260.834290 10 10
174.833664 269.931610 10 10
193.396927 258.007629 10 10
frame0047
134.194138 73.359169 10 10
126.120995 96.083824 10 10
125.786232 169.887924 10 10
136.097137 240.982330 10 10
128.946518 260.835388 10 10
174.839508 269.936920 10 10
193.550034 257.998230 10 10
frame0048
134.731232 73.358688 10 10
126.566490 96.117279 10 10
126.256119 170.099762 10 10
135.841812 240.987518 10 10
128.945648 260.836090 10 10
175.052979 269.727692 10 10
193.508011 258.000549 10 10
frame0049
135.186386 73.359665 10 10
126.992790 96.250198 10 10
126.274200 169.899918 10 10
136.052948 241.256165 10 10
129.151154 260.839600 10 10
175.028091 269.757782 10 10
193.506805 257.997833 10 10
frame0050
135.717178 73.365425 10 10
127.445053 96.188507 10 10
126.643982 170.087799 10 10
136.098175 241.246048 10 10
129.146301 260.840210 10 10
175.014053 269.652374 10 10
193.506821 257.994873 10 10
frame0051
136.189453 73.366524 10 10
127.617149 96.300941 10 10
126.756126 169.832718 10 10
136.095169 241.244507 10 10
128.954239 260.599121 10 10
175.023270 269.486450 10 10
193.677383 257.951965 10 10
frame0052
136.642181 73.486053 10 10
127.978561 96.402832 10 10
126.995102 169.832489 10 10
136.339813 241.097687 10 10
128.954086 260.598145 10 10
174.948120 269.515686 10 10
193.669678 257.748779 10 10
frame0053
137.017761 73.491119 10 10
128.415466 96.323082 10 10
127.261627 170.075378 10 10
136.337387 241.098663 10 10
128.960144 260.600342 10 10
174.947891 269.515808 10 10
193.666214 257.747070 10 10
frame0054
137.264923 73.490593 10 10
128.846039 96.343552 10 10
127.388908 170.055603 10 10
136.337921 241.098007 10 10
128.953644 260.597809 10 10
174.966553 269.489502 10 10
193.664841 257.744934 10 10
frame0055
137.651505 73.455338 10 10
129.139801 96.381325 10 10
127.382172 170.053787 10 10
136.337952 241.098206 10 10
128.953674 260.597992 10 10
174.957703 269.498596 10 10
193.661591 257.743317 10 10
frame0056
138.047577 73.747719 10 10
129.342316 96.575432 10 10
127.773788 170.072205 10 10
136.335999 241.093796 10 10
128.952621 260.405334 10 10
174.934967 269.570801 10 10
193.662872 257.744080 10 10
frame0057
138.592026 73.589401 10 10
129.834641 96.569946 10 10
127.996704 170.252197 10 10
136.338242 241.093582 10 10
128.932465 260.544769 10 10
174.932800 269.571075 10 10
193.658737 257.742004 10 10
frame0058
138.983139 73.688004 10 10
130.156158 96.593742 10 10
128.128479 170.089661 10 10
136.338104 241.094315 10 10
128.933105 260.547943 10 10
174.941864 269.558563 10 10
193.657837 257.739624 10 10
frame0059
139.200272 73.695412 10 10
130.385193 96.712112 10 10
128.366760 170.078018 10 10
136.337494 241.093216 10 10
128.934753 260.545624 10 10
174.941895 269.559204 10 10
193.656967 257.742615 10 10
frame0060
139.709946 73.923378 10 10
130.758087 96.838287 10 10
128.493073 170.266174 10 10
136.338181 241.089935 10 10
128.936676 260.546448 10 10
174.946762 269.564636 10 10
193.656128 257.740662 10 10
frame0061
139.957687 73.922989 10 10
131.034149 96.710716 10 10
128.490204 170.263870 10 10
136.339310 241.087723 10 10
128.937225 260.547058 10 10
174.945190 269.564636 10 10
193.652740 257.739319 10 10
frame0062
140.198273 73.918419 10 10
131.201935 96.824677 10 10
128.741302 170.219070 10 10
136.340622 241.086777 10 10
128.908035 260.560883 10 10
174.942856 269.567566 10 10
193.651657 257.738953 10 10
frame0063
140.702087 74.002777 10 10
131.827637 96.721916 10 10
128.973297 170.235962 10 10
136.273560 241.062149 10 10
128.838776 260.564819 10 10
174.942001 269.567352 10 10
193.616776 257.734039 10 10
frame0064
141.035904 73.997032 10 10
132.067871 96.959587 10 10
129.275009 170.232666 10 10
136.279175 241.059464 10 10
128.908447 260.565857 10 10
174.943878 269.568115 10 10
193.615616 257.732849 10 10
frame0065
141.469986 74.042274 10 10
132.318085 96.944427 10 10
129.061905 170.288757 10 10
136.307419 241.008820 10 10
128.905930 260.497253 10 10
174.900665 269.599121 10 10
193.528412 257.705688 10 10
frame0066
141.730499 74.291306 10 10
132.639328 97.180771 10 10
129.609833 170.293839 10 10
136.434891 241.131729 10 10
128.896805 260.499756 10 10
174.904236 269.553040 10 10
193.529678 257.703430 10 10
frame0067
142.207413 74.051544 10 10
132.883621 97.068130 10 10
129.585571 170.321014 10 10
136.443802 241.012665 10 10
129.100494 260.508972 10 10
174.895721 269.568481 10 10
193.527756 257.702271 10 10
frame0068
142.736069 74.295883 10 10
133.296417 97.165871 10 10
129.623871 170.339996 10 10
136.439087 241.124466 10 10
128.896378 260.504211 10 10
174.891068 269.575562 10 10
193.528244 257.702576 10 10
frame0069
142.975128 74.424698 10 10
133.629959 97.204132 10 10
130.135712 170.355804 10 10
136.439209 241.118576 10 10
128.890015 260.493408 10 10
174.894882 269.569061 10 10
193.527756 257.701721 10 10
frame0070
143.331711 74.434738 10 10
133.884079 97.203423 10 10
130.386536 170.357529 10 10
136.447968 240.998077 10 10
128.885223 260.501678 10 10
174.886108 269.566315 10 10
193.526596 257.704651 10 10
frame0071
143.582855 74.587112 10 10
134.173752 97.195320 10 10
130.184311 170.365875 10 10
136.441254 241.111343 10 10
128.892410 260.502991 10 10
174.892868 269.575806 10 10
193.526840 257.702087 10 10
frame0072
144.208954 74.604401 10 10
134.719971 97.196571 10 10
130.655731 170.354080 10 10
136.699677 241.014954 10 10
128.894501 260.503540 10 10
174.893173 269.575500 10 10
193.527878 257.706787 10 10
frame0073
144.220947 74.679985 10 10
135.033524 97.349968 10 10
130.667374 170.358704 10 10
136.453201 240.997498 10 10
128.897766 260.504181 10 10
174.893692 269.575043 10 10
193.535309 257.702393 10 10
frame0074
144.595535 74.694878 10 10
135.265762 97.364227 10 10
130.913727 170.652115 10 10
136.447189 240.991684 10 10
128.895416 260.503967 10 10
174.895401 269.574127 10 10
193.675858 257.691589 10 10
frame0075
145.079712 74.727303 10 10
135.557114 97.417412 10 10
130.974945 170.688171 10 10
136.475174 241.091690 10 10
128.885620 260.509796 10 10
174.896317 269.574829 10 10
193.534256 257.713684 10 10
frame0076
145.220566 74.730042 10 10
135.858505 97.423737 10 10
131.469849 170.683212 10 10
136.474167 241.107178 10 10
128.885178 260.509338 10 10
174.897736 269.574219 10 10
193.532471 257.710449 10 10
frame0077
145.705795 74.947517 10 10
136.347168 97.458359 10 10
131.740265 170.698532 10 10
136.477448 241.001953 10 10
128.883759 260.500641 10 10
174.892456 269.571442 10 10
193.533676 257.712708 10 10
frame0078
145.950043 74.938240 10 10
136.442703 97.447006 10 10
131.764542 170.707520 10 10
136.481857 241.000565 10 10
128.883942 260.510834 10 10
174.895721 269.572357 10 10
193.536774 257.715118 10 10
frame0079
146.523117 74.935982 10 10
136.759354 97.553871 10 10
131.757278 170.706345 10 10
136.479904 241.007950 10 10
128.881592 260.509979 10 10
174.901306 269.561371 10 10
193.537827 257.715332 10 10
frame0080
146.805130 74.923576 10 10
137.134506 97.585625 10 10
132.001663 170.915009 10 10
136.463333 241.251999 10 10
128.889221 260.501709 10 10
174.818954 269.524811 10 10
193.541061 257.716034 10 10
frame0081
147.219376 75.288696 10 10
137.501007 97.614197 10 10
132.014496 170.914536 10 10
136.745010 241.249939 10 10
128.888153 260.498779 10 10
174.900253 269.559784 10 10
193.538910 257.719910 10 10
frame0082
147.491699 75.293388 10 10
137.772995 97.646088 10 10
132.005981 170.913803 10 10
136.749557 241.248886 10 10
128.889542 260.499023 10 10
174.899750 269.559326 10 10
193.543777 257.722839 10 10
frame0083
147.759323 75.336349 10 10
138.205261 97.831970 10 10
132.473679 170.900345 10 10
136.497498 241.253891 10 10
128.892029 260.505341 10 10
174.900299 269.559143 10 10
193.544724 257.725067 10 10
frame0084
148.223389 75.342194 10 10
138.246704 98.000923 10 10
132.735031 170.912827 10 10
136.496887 241.262131 10 10
128.894470 260.609955 10 10
174.897629 269.573273 10 10
193.547729 257.730774 10 10
frame0085
148.479904 75.332054 10 10
138.751938 97.964256 10 10
132.737335 170.870972 10 10
136.752487 241.272568 10 10
128.898041 260.609344 10 10
174.895966 269.573334 10 10
193.547424 257.730835 10 10
frame0086
148.767029 75.555656 10 10
138.986435 97.962692 10 10
132.734116 170.869202 10 10
136.752319 241.274765 10 10
128.899979 260.600800 10 10
174.903442 269.589233 10 10
193.547546 257.730164 10 10
frame0087
149.004333 75.550209 10 10
139.227661 97.987000 10 10
133.110382 170.879440 10 10
136.853699 241.272873 10 10
128.935608 260.583679 10 10
174.906754 269.591797 10 10
193.541763 257.933472 10 10
frame0088
149.505966 75.764091 10 10
139.552200 98.172058 10 10
133.356873 170.880905 10 10
136.853195 241.275131 10 10
128.936737 260.583740 10 10
174.905792 269.591797 10 10
193.545319 257.931335 10 10
frame0089
149.801163 75.868080 10 10
139.858978 98.150505 10 10
133.357376 170.878693 10 10
136.601776 241.261627 10 10
128.937286 260.582214 10 10
174.911942 269.628235 10 10
193.541061 257.929626 10 10
frame0090
150.008133 75.898270 10 10
140.028122 98.151443 10 10
133.342407 171.099396 10 10
136.855927 241.281189 10 10
128.928009 260.518463 10 10
174.849075 269.752075 10 10
193.537766 257.966370 10 10
frame0091
150.245651 75.895615 10 10
140.270325 98.400505 10 10
133.341431 171.103455 10 10
136.852448 241.283920 10 10
128.929382 260.518799 10 10
174.806854 269.786865 10 10
193.542145 257.969482 10 10
frame0092
150.760269 76.073318 10 10
140.784027 98.393707 10 10
133.868622 171.142334 10 10
136.852722 241.285782 10 10
128.934326 260.531738 10 10
174.845673 269.761108 10 10
193.550919 257.980957 10 10
frame0093
151.231995 76.063622 10 10
141.001770 98.301468 10 10
133.908325 171.107986 10 10
136.857147 241.394775 10 10
128.934143 260.531738 10 10
174.828201 269.814606 10 10
193.416275 258.202942 10 10
frame0094
151.484314 76.285904 10 10
141.209793 98.359688 10 10
133.902634 171.277359 10 10
137.072693 241.391907 10 10
128.934509 260.531342 10 10
174.818909 269.815033 10 10
193.429077 258.210449 10 10
frame0095
151.967453 76.235397 10 10
141.694000 98.503540 10 10
134.215454 171.288330 10 10
136.821304 241.481598 10 10
128.916992 260.753967 10 10
174.878265 269.901031 10 10
193.508194 258.154724 10 10
frame0096
152.205383 76.229927 10 10
141.936401 98.558617 10 10
134.497467 171.295731 10 10
136.820663 241.481934 10 10
128.915192 260.750671 10 10
174.979614 269.953339 10 10
193.506516 258.107910 10 10
frame0097
152.728149 76.492043 10 10
142.302841 98.589630 10 10
134.743637 171.564972 10 10
136.819977 241.481903 10 10
128.912628 260.747589 10 10
174.858292 269.917480 10 10
193.645782 258.072754 10 10
frame0098
152.955002 76.499573 10 10
142.591705 98.646088 10 10
134.759415 171.651764 10 10
136.820236 241.482239 10 10
128.917450 260.706970 10 10
174.860687 269.916199 10 10
193.503235 258.128784 10 10
frame0099
153.462784 76.497841 10 10
143.159546 98.789131 10 10
134.759476 171.649689 10 10
136.826187 241.453781 10 10
128.910278 260.697449 10 10
174.819031 270.071808 10 10
193.503906 258.221680 10 10
frame0100
153.689560 76.610176 10 10
143.412003 98.987808 10 10
134.997894 171.662933 10 10
136.829117 241.455872 10 10
128.905563 260.692657 10 10
174.838516 270.302307 10 10
193.512970 258.184814 10 10
frame0101
153.940521 76.628593 10 10
143.677261 98.891029 10 10
135.000290 171.663849 10 10
137.020294 241.455627 10 10
128.846451 260.690613 10 10
174.905334 270.135223 10 10
193.497940 258.129089 10 10
frame0102
154.173340 76.871643 10 10
143.921661 99.109406 10 10
135.225342 171.829254 10 10
137.017776 241.457108 10 10
128.895874 260.689178 10 10
174.814316 270.096863 10 10
193.479233 258.404419 10 10
frame0103
154.471283 76.883118 10 10
144.293930 99.098541 10 10
135.225922 171.664551 10 10
137.017014 241.457352 10 10
128.897018 260.690125 10 10
174.800751 270.116882 10 10
193.473999 258.396301 10 10
frame0104
154.919998 76.876625 10 10
144.430298 99.095428 10 10
135.491867 171.671814 10 10
137.026428 241.535248 10 10
128.895874 260.688354 10 10
174.791351 270.117096 10 10
193.659210 258.378601 10 10
frame0105
155.290298 77.066483 10 10
144.702393 99.092781 10 10
135.732849 171.831238 10 10
137.013428 241.534470 10 10
128.911163 260.625549 10 10
174.782043 270.108398 10 10
193.521469 258.482239 10 10
frame0106
155.527756 77.061966 10 10
144.928818 99.105576 10 10
135.770996 171.916092 10 10
137.014664 241.535675 10 10
128.909683 260.624329 10 10
174.775558 270.114594 10 10
193.531723 258.478210 10 10
frame0107
155.841614 77.163422 10 10
145.306900 99.164307 10 10
136.003632 171.839310 10 10
137.011261 241.536850 10 10
128.905777 260.612640 10 10
174.829727 270.191956 10 10
193.538177 258.478088 10 10
frame0108
156.150146 77.101692 10 10
145.624588 99.422867 10 10
136.232239 171.941696 10 10
137.014771 241.535599 10 10
128.910263 260.619904 10 10
174.767838 270.249786 10 10
193.521149 258.689362 10 10
frame0109
156.516647 77.429413 10 10
145.928741 99.399651 10 10
136.266449 171.942276 10 10
137.007751 241.418564 10 10
128.909485 260.619263 10 10
174.759277 270.251068 10 10
193.516739 258.681946 10 10
frame0110
156.996780 77.423660 10 10
146.214203 99.416641 10 10
136.565033 171.951218 10 10
137.006332 241.418991 10 10
128.909424 260.619446 10 10
174.703827 270.398865 10 10
193.521851 258.707031 10 10
frame0111
157.273346 77.609833 10 10
146.644485 99.427475 10 10
136.568558 171.953415 10 10
136.994568 241.418579 10 10
128.905762 260.612915 10 10
174.693680 270.432434 10 10
193.514420 258.703979 10 10
frame0112
157.411484 77.642998 10 10
146.730148 99.545692 10 10
136.807648 171.958344 10 10
136.977524 241.430237 10 10
128.903229 260.617096 10 10
174.689240 270.433014 10 10
193.506699 258.695801 10 10
frame0113
157.893356 77.603821 10 10
146.993896 99.545807 10 10
136.963074 171.945053 10 10
137.200256 241.626846 10 10
128.909454 260.622101 10 10
174.625946 270.557953 10 10
193.507111 258.758209 10 10
frame0114
158.117950 77.774223 10 10
147.278854 99.630028 10 10
137.178589 172.040024 10 10
137.208817 241.758240 10 10
128.918762 260.597931 10 10
174.584839 270.567230 10 10
193.514740 258.768738 10 10
frame0115
158.880493 77.746597 10 10
147.957123 99.790283 10 10
137.406418 172.047882 10 10
137.199860 241.647141 10 10
128.912170 260.742767 10 10
174.582306 270.567017 10 10
193.518753 258.763245 10 10
frame0116
159.032776 77.847488 10 10
148.085037 99.679428 10 10
137.509811 172.140732 10 10
137.200027 241.649002 10 10
128.911804 260.742859 10 10
174.579681 270.566498 10 10
193.519836 258.837372 10 10
frame0117
159.374771 77.930420 10 10
148.357101 99.921234 10 10
137.507050 172.143707 10 10
137.201126 241.646774 10 10
128.918503 260.597931 10 10
174.439102 270.593781 10 10
193.476837 258.855835 10 10
frame0118
159.870621 77.964111 10 10
148.631424 99.888885 10 10
137.753815 172.142548 10 10
137.200394 241.647659 10 10
128.916214 260.597076 10 10
174.438507 270.592987 10 10
193.474777 258.841980 10 10
frame0119
160.097656 78.046555 10 10
149.088623 99.957100 10 10
137.799545 172.137741 10 10
137.203110 241.560410 10 10
129.124207 260.532379 10 10
174.577850 270.561218 10 10
193.547043 258.865784 10 10
frame0120
160.691605 78.029350 10 10
149.622391 99.908455 10 10
138.022980 172.052002 10 10
137.194275 241.643585 10 10
129.124115 260.532379 10 10
174.584915 270.551422 10 10
193.546036 258.872650 10 10
frame0121
160.977203 78.076248 10 10
149.841003 99.961159 10 10
138.036148 172.055588 10 10
137.434402 241.468262 10 10
129.123489 260.531891 10 10
174.530853 270.676178 10 10
193.553192 258.896851 10 10
frame0122
161.481735 78.157410 10 10
150.362167 99.925461 10 10
138.556183 172.053772 10 10
137.434631 241.467773 10 10
129.121490 260.526428 10 10
174.563828 270.565643 10 10
193.550201 258.877808 10 10
frame0123
161.908844 78.034576 10 10
150.650085 99.925842 10 10
138.922394 172.104324 10 10
137.430496 241.360199 10 10
129.113861 260.277344 10 10
174.538528 270.695557 10 10
193.554291 258.874908 10 10
frame0124
162.177719 78.022034 10 10
150.864838 99.984741 10 10
139.105362 171.942795 10 10
137.431198 241.361023 10 10
129.111481 260.268982 10 10
174.566620 270.568604 10 10
193.569809 258.856995 10 10
frame0125
162.807312 78.116806 10 10
151.389191 99.905258 10 10
139.107040 172.100082 10 10
137.445984 241.110046 10 10
129.146133 259.993683 10 10
174.667557 270.564575 10 10
193.632797 258.857910 10 10
frame0126
163.158234 78.357986 10 10
151.756912 99.947624 10 10
139.406403 171.961990 10 10
137.455170 240.974686 10 10
129.139862 259.987335 10 10
174.509460 270.531250 10 10
193.632233 258.861145 10 10
frame0127
163.689865 78.359749 10 10
152.238846 99.951347 10 10
139.371780 171.853027 10 10
137.454987 240.974350 10 10
129.140228 259.990784 10 10
174.576630 270.464722 10 10
193.497253 258.870758 10 10
frame0128
163.958328 78.334267 10 10
152.770905 99.967247 10 10
139.799423 171.839554 10 10
137.455292 240.973083 10 10
129.143188 259.774719 10 10
174.632736 270.574249 10 10
193.634872 258.870239 10 10
frame0129
164.599930 78.332664 10 10
152.999847 99.959869 10 10
139.915009 171.837906 10 10
137.690048 240.980728 10 10
129.141800 259.777771 10 10
174.635162 270.573425 10 10
193.637970 258.875183 10 10
frame0130
164.891708 78.230148 10 10
153.239120 100.193535 10 10
139.946686 171.901993 10 10
137.685715 240.731857 10 10
129.141953 259.779236 10 10
174.634018 270.573364 10 10
193.640472 258.875244 10 10
frame0131
165.337082 78.501961 10 10
153.767563 100.187157 10 10
140.424728 171.898743 10 10
137.707321 240.983139 10 10
129.317276 259.759705 10 10
174.636017 270.573273 10 10
193.494415 258.884094 10 10
frame0132
165.705231 78.638542 10 10
154.201767 99.931496 10 10
140.509476 171.930908 10 10
137.690109 240.757492 10 10
129.328018 259.749329 10 10
174.589325 270.574615 10 10
193.641510 258.877991 10 10
frame0133
166.381531 78.500008 10 10
154.773773 100.182053 10 10
140.887375 171.874985 10 10
137.689743 240.754486 10 10
129.327972 259.750244 10 10
174.589844 270.574554 10 10
193.587540 258.936096 10 10
frame0134
166.871033 78.497414 10 10
155.209473 100.142128 10 10
140.904633 171.822968 10 10
137.699753 240.491486 10 10
129.299377 259.315369 10 10
174.598816 270.590424 10 10
193.587448 258.935577 10 10
frame0135
167.270279 78.758850 10 10
155.602448 100.098701 10 10
141.117630 171.737503 10 10
137.699982 240.491974 10 10
129.302948 259.313293 10 10
174.407715 270.660889 10 10
193.698181 259.137878 10 10
frame0136
167.712265 78.766579 10 10
156.171219 100.045891 10 10
141.253647 171.723221 10 10
137.700760 240.491119 10 10
129.298218 259.106262 10 10
174.408264 270.661011 10 10
193.696167 259.136688 10 10
frame0137
168.363876 78.747398 10 10
156.358932 100.329124 10 10
141.751953 171.705856 10 10
137.916748 240.639633 10 10
129.581207 259.136230 10 10
174.359314 270.661041 10 10
193.693253 259.136688 10 10
frame0138
169.109100 78.750687 10 10
156.943405 100.082565 10 10
141.904205 171.699448 10 10
137.945618 240.513489 10 10
129.325745 258.990112 10 10
174.345917 270.720581 10 10
193.568466 259.146576 10 10
frame0139
169.537292 78.882767 10 10
157.274185 100.261467 10 10
142.150589 171.712357 10 10
137.938171 240.138809 10 10
129.557556 258.907349 10 10
174.347122 270.720490 10 10
193.567978 259.146179 10 10
frame0140
169.894089 78.997139 10 10
157.817078 100.285889 10 10
142.416046 171.705322 10 10
138.169632 239.999786 10 10
129.571381 258.769409 10 10
174.301025 270.825928 10 10
193.579727 259.163086 10 10
frame0141
170.376495 78.988525 10 10
158.128418 100.452057 10 10
142.678757 171.609924 10 10
137.982498 240.005814 10 10
129.530457 258.757904 10 10
174.299835 270.827911 10 10
193.600983 259.182220 10 10
frame0142
170.905380 79.092331 10 10
158.900162 100.449043 10 10
142.924850 171.580002 10 10
137.983124 239.693970 10 10
129.524597 258.668823 10 10
174.303482 270.828308 10 10
193.600281 259.181458 10 10
frame0143
171.522034 79.240616 10 10
159.237122 100.332268 10 10
143.258194 171.530243 10 10
137.983795 239.854080 10 10
129.549744 258.488220 10 10
174.270157 270.760040 10 10
193.606155 259.183716 10 10
frame0144
171.522614 79.241600 10 10
159.235840 100.333923 10 10
143.257919 171.530106 10 10
137.984940 239.848969 10 10
129.615524 258.503174 10 10
174.272766 270.760193 10 10
193.607086 259.183411 10 10
frame0145
172.148270 79.207581 10 10
159.779297 100.344612 10 10
143.377975 171.529068 10 10
138.339554 239.827637 10 10
129.860962 258.368774 10 10
174.168594 270.817047 10 10
193.535431 259.166443 10 10
frame0146
172.570236 79.040619 10 10
160.249146 100.342209 10 10
143.778961 171.288193 10 10
138.346924 239.550522 10 10
129.859436 258.242004 10 10
174.147812 270.804382 10 10
193.506851 259.168793 10 10
frame0147
173.165649 79.429970 10 10
160.732330 100.373657 10 10
144.009628 171.313736 10 10
138.427750 239.404999 10 10
129.837357 258.027435 10 10
174.168716 270.817688 10 10
193.498474 259.395844 10 10
frame0148
173.797668 79.378906 10 10
161.182190 100.377464 10 10
144.451004 171.197144 10 10
138.463669 239.398270 10 10
129.838623 257.803223 10 10
174.084976 270.901520 10 10
193.498474 259.397217 10 10
frame0149
174.518585 79.430222 10 10
161.670776 100.463966 10 10
144.695755 171.177536 10 10
138.595947 239.376190 10 10
129.864990 257.628906 10 10
174.138687 270.887878 10 10
193.615875 259.423065 10 10
frame0150
175.069656 79.273697 10 10
162.151917 100.461037 10 10
144.940933 171.136841 10 10
138.846283 239.128052 10 10
129.914764 257.385345 10 10
174.094650 270.981628 10 10
193.682159 259.427338 10 10
frame0151
175.761902 79.520126 10 10
162.916824 100.452057 10 10
145.292313 170.959854 10 10
138.850983 239.136551 10 10
130.082733 257.381531 10 10
174.096252 270.981506 10 10
193.833832 259.669617 10 10
frame0152
176.426605 79.305481 10 10
163.409760 100.453239 10 10
145.812027 170.969559 10 10
138.933060 238.914810 10 10
130.073395 257.102051 10 10
174.091492 270.981781 10 10
193.679230 259.684174 10 10
frame0153
176.966415 79.361938 10 10
164.002304 100.430588 10 10
146.033142 170.775772 10 10
138.932495 238.785507 10 10
130.051422 256.974792 10 10
174.166229 270.921661 10 10
193.809021 259.599609 10 10
frame0154
177.685822 79.363281 10 10
164.458511 100.213394 10 10
146.335022 170.799515 10 10
138.973755 238.433334 10 10
130.062332 256.729187 10 10
174.130524 270.888184 10 10
193.809952 259.599670 10 10
frame0155
178.092010 79.456375 10 10
165.178986 100.175812 10 10
146.629745 170.300430 10 10
139.018143 238.314041 10 10
130.070251 256.420715 10 10
174.040146 270.808167 10 10
193.870483 259.522827 10 10
frame0156
178.897293 79.312988 10 10
165.957733 100.186653 10 10
147.071274 170.308884 10 10
139.251205 238.065445 10 10
130.332001 256.172791 10 10
174.085083 270.933228 10 10
193.865784 259.523193 10 10
frame0157
179.497528 79.333824 10 10
166.407623 99.969070 10 10
147.077011 170.048798 10 10
139.246002 237.823273 10 10
130.335297 255.920822 10 10
174.075317 270.919800 10 10
193.728760 259.539642 10 10
frame0158
180.405594 79.262489 10 10
167.052032 99.990791 10 10
147.604294 170.054398 10 10
139.408249 237.708115 10 10
130.316833 255.657806 10 10
174.074234 270.922607 10 10
193.871964 259.523682 10 10
frame0159
181.150620 79.248039 10 10
167.676468 99.973938 10 10
147.841492 169.723984 10 10
139.593460 237.549683 10 10
130.323425 255.514053 10 10
174.029480 270.809082 10 10
193.887924 259.500488 10 10
frame0160
181.995255 79.135300 10 10
168.404999 99.736656 10 10
148.322906 169.582169 10 10
139.549164 237.055984 10 10
130.409332 255.221008 10 10
174.033707 270.809265 10 10
193.884857 259.500305 10 10
frame0161
182.675858 79.028511 10 10
169.108505 99.695068 10 10
148.607986 169.583511 10 10
139.672913 236.909637 10 10
130.335388 254.759171 10 10
173.983078 270.764435 10 10
193.899689 259.501648 10 10
frame0162
183.390335 79.019112 10 10
169.880096 99.436401 10 10
148.901230 169.165955 10 10
139.837830 236.590149 10 10
130.316803 254.477936 10 10
173.974426 270.764832 10 10
193.875534 259.503204 10 10
frame0163
184.032455 78.986488 10 10
170.588547 99.388405 10 10
149.321350 168.828918 10 10
139.836304 236.319016 10 10
130.373413 254.235336 10 10
173.976517 270.766296 10 10
193.892349 259.503296 10 10
frame0164
185.004868 78.856644 10 10
171.150101 99.322144 10 10
149.868423 168.593063 10 10
140.009613 236.052155 10 10
130.343658 253.686081 10 10
173.915939 270.643616 10 10
193.890640 259.503143 10 10
frame0165
185.811508 78.763397 10 10
171.955658 99.267570 10 10
150.154449 168.463348 10 10
139.989883 235.923340 10 10
130.388489 253.464035 10 10
173.945251 270.628357 10 10
193.901611 259.507385 10 10
frame0166
186.503464 78.783997 10 10
172.697739 98.922310 10 10
150.626801 168.076248 10 10
140.231430 235.460388 10 10
130.420547 253.099564 10 10
173.993546 270.502411 10 10
194.021057 259.259430 10 10
frame0167
187.489563 78.526550 10 10
173.421097 98.869637 10 10
151.123489 167.810333 10 10
140.247879 235.205200 10 10
130.607758 252.932816 10 10
173.998703 270.502136 10 10
194.021545 259.261902 10 10
frame0168
188.429733 78.464890 10 10
174.069977 98.663773 10 10
151.654007 167.561996 10 10
140.301559 234.684418 10 10
130.597046 252.417374 10 10
174.010132 270.469421 10 10
194.032852 259.269806 10 10
frame0169
189.342361 78.534981 10 10
175.057190 98.563629 10 10
152.042374 167.206375 10 10
140.358383 234.352280 10 10
130.606583 251.934921 10 10
174.030106 270.381958 10 10
194.046722 259.300476 10 10
frame0170
190.380997 78.339096 10 10
175.970596 98.453087 10 10
152.559418 167.042892 10 10
140.633636 234.097382 10 10
130.592133 251.708511 10 10
173.820755 270.381439 10 10
193.950836 259.291382 10 10
frame0171
191.390976 78.022873 10 10
176.962433 98.184158 10 10
153.069870 166.643631 10 10
140.716629 233.680893 10 10
130.690430 251.337646 10 10
173.893539 270.348083 10 10
194.119888 259.290039 10 10
frame0172
192.231735 78.115021 10 10
177.800812 98.154243 10 10
153.333572 166.375580 10 10
140.818604 233.413651 10 10
130.815765 250.805038 10 10
173.875198 270.111603 10 10
194.133942 259.110138 10 10
frame0173
193.347733 77.928604 10 10
178.821442 97.895042 10 10
154.086136 166.118347 10 10
141.053009 232.925629 10 10
130.802734 250.030869 10 10
173.886993 270.096680 10 10
194.171112 259.103943 10 10
frame0174
194.429520 77.925369 10 10
179.588272 97.661133 10 10
154.615387 165.888199 10 10
141.195587 232.644287 10 10
130.809357 249.802475 10 10
173.941147 270.058838 10 10
194.354675 259.095825 10 10
frame0175
195.426498 77.585449 10 10
180.613403 97.391136 10 10
155.084015 165.362930 10 10
141.304276 232.174850 10 10
131.047424 249.292999 10 10
173.956284 269.907104 10 10
194.385880 259.167725 10 10
frame0176
196.664154 77.603622 10 10
181.601395 97.393303 10 10
155.839203 165.112930 10 10
141.674133 231.726349 10 10
131.035156 248.812073 10 10
173.958649 269.915344 10 10
194.385910 259.168457 10 10
frame0177
197.937317 77.341141 10 10
182.784348 97.170570 10 10
156.497131 164.714340 10 10
141.816910 231.211823 10 10
131.234619 248.058609 10 10
173.958954 269.721863 10 10
194.497604 259.360596 10 10
frame0178
198.939194 77.342766 10 10
183.761169 97.046333 10 10
157.053268 164.385757 10 10
141.973007 230.909042 10 10
131.067337 247.516327 10 10
173.990417 269.713409 10 10
194.518433 259.405212 10 10
frame0179
200.233658 77.326164 10 10
184.953888 96.949867 10 10
157.769073 163.890945 10 10
142.171814 230.377823 10 10
131.261002 247.032913 10 10
173.983643 269.483002 10 10
194.691177 259.566895 10 10
frame0180
201.470642 77.182632 10 10
186.176025 96.705902 10 10
158.344147 163.459549 10 10
142.585800 229.541412 10 10
131.527679 246.682968 10 10
174.156738 269.574615 10 10
194.749496 259.676941 10 10
frame0181
202.928818 76.958694 10 10
187.245453 96.410530 10 10
159.153412 163.116089 10 10
142.744659 229.143967 10 10
131.680069 245.905090 10 10
174.152939 269.574890 10 10
194.968399 259.677551 10 10
frame0182
204.217499 76.742424 10 10
188.562927 96.166664 10 10
160.025635 162.464737 10 10
143.071854 228.586060 10 10
131.688019 245.130127 10 10
174.104401 269.284576 10 10
195.069229 259.688049 10 10
frame0183
205.588516 76.487114 10 10
189.730820 95.825668 10 10
160.814911 161.965347 10 10
143.384613 228.063461 10 10
131.964111 244.656525 10 10
174.084946 269.051880 10 10
195.230759 259.879913 10 10
frame0184
207.030594 76.426613 10 10
190.995148 95.592552 10 10
161.530106 161.595474 10 10
143.906525 227.596542 10 10
132.209473 243.910675 10 10
174.097763 268.839081 10 10
195.481033 259.916016 10 10
frame0185
208.282104 76.163193 10 10
192.152573 95.272362 10 10
162.204712 161.029297 10 10
144.034027 226.844940 10 10
132.476959 243.056961 10 10
173.995667 268.885284 10 10
195.736130 260.245300 10 10
frame0186
209.678238 75.891235 10 10
193.709564 95.064529 10 10
163.068909 160.620804 10 10
144.267227 226.124954 10 10
132.769409 242.192581 10 10
174.005447 268.890045 10 10
195.789047 260.293457 10 10
frame0187
211.382523 75.631035 10 10
194.770630 94.547241 10 10
163.912338 159.988449 10 10
144.835815 225.388245 10 10
133.068558 241.269211 10 10
174.146454 268.688965 10 10
196.025452 260.625366 10 10
frame0188
213.042679 75.386642 10 10
196.103607 94.287537 10 10
164.912735 159.213257 10 10
145.088577 224.789124 10 10
133.306900 240.722488 10 10
174.168259 268.417419 10 10
196.218246 260.883698 10 10
frame0189
214.125839 75.121635 10 10
197.606842 94.080818 10 10
165.866333 158.940964 10 10
145.697235 224.134308 10 10
133.600189 239.778107 10 10
174.212326 268.302307 10 10
196.405441 261.197266 10 10
frame0190
215.677643 74.877411 10 10
198.849213 93.577538 10 10
166.612198 158.074158 10 10
146.248077 223.416611 10 10
134.009628 239.194824 10 10
174.249924 268.161102 10 10
196.735138 261.510559 10 10
frame0191
217.117477 74.654518 10 10
200.569824 93.314827 10 10
167.405914 157.591309 10 10
146.735611 222.708878 10 10
134.365005 238.005127 10 10
174.215775 267.825653 10 10
197.090210 261.793091 10 10
frame0192
218.892685 74.662415 10 10
201.838577 93.082573 10 10
168.608185 157.086945 10 10
147.011200 221.973572 10 10
134.791168 237.366119 10 10
174.253098 267.806305 10 10
197.094193 262.090881 10 10
frame0193
220.641251 74.390053 10 10
203.228775 92.774506 10 10
169.434784 156.597092 10 10
147.586700 221.368973 10 10
135.256958 236.625641 10 10
174.508987 267.500977 10 10
197.194534 262.400452 10 10
frame0194
222.083115 74.301819 10 10
204.740311 92.400452 10 10
170.413055 155.857758 10 10
147.997437 220.768906 10 10
135.616211 235.837219 10 10
174.424118 267.429901 10 10
197.434296 262.657990 10 10
frame0195
223.743210 74.237808 10 10
206.071823 92.152565 10 10
171.385864 155.331741 10 10
148.583725 219.922180 10 10
136.183060 234.720673 10 10
174.663651 267.390930 10 10
197.803665 262.809937 10 10
frame0196
225.443665 74.021431 10 10
207.702942 91.879288 10 10
172.514603 154.900269 10 10
149.293137 218.944092 10 10
136.548660 233.715820 10 10
174.602722 267.320129 10 10
198.348831 263.121613 10 10
frame0197
226.982697 73.770515 10 10
209.157806 91.677475 10 10
173.586533 154.184891 10 10
149.762100 218.420380 10 10
137.081299 232.957703 10 10
174.788513 267.131470 10 10
198.584442 263.361694 10 10
frame0198
228.761780 73.497017 10 10
210.580246 91.352615 10 10
174.662796 153.517532 10 10
150.560425 217.942856 10 10
137.643036 232.156464 10 10
174.868744 267.107056 10 10
198.731430 263.795135 10 10
frame0199
230.506912 73.486412 10 10
212.094086 91.091591 10 10
175.693741 153.122726 10 10
151.263611 216.895126 10 10
138.139084 231.189041 10 10
174.905594 267.176575 10 10
198.793365 263.889221 10 10
frame0200
232.249466 73.236748 10 10
213.582886 90.876595 10 10
176.810623 152.530548 10 10
151.774826 216.411346 10 10
138.624695 230.182465 10 10
174.928055 267.208160 10 10
198.776398 264.104858 10 10
frame0201
234.022446 73.173592 10 10
215.323975 90.349609 10 10
178.042038 151.803757 10 10
152.523224 215.679382 10 10
139.353653 229.173004 10 10
175.057861 267.195923 10 10
198.776505 264.102051 10 10
frame0202
235.693619 72.690674 10 10
217.079681 89.993484 10 10
179.015381 151.054031 10 10
153.262817 214.923340 10 10
140.095779 228.441574 10 10
175.116714 267.309021 10 10
198.967926 264.306671 10 10
frame0203
237.682175 72.692497 10 10
218.584534 89.869743 10 10
180.496078 150.416245 10 10
154.005066 213.946381 10 10
140.857437 227.614288 10 10
175.235321 267.094940 10 10
199.011322 264.126740 10 10
frame0204
239.690277 72.584038 10 10
220.330536 89.334038 10 10
182.014465 149.823242 10 10
154.770691 213.170212 10 10
141.615570 226.550766 10 10
175.466629 267.286621 10 10
199.155334 264.348572 10 10
frame0205
241.436325 72.341019 10 10
222.092880 89.324852 10 10
183.233032 149.039413 10 10
155.754868 212.431747 10 10
142.361969 225.447891 10 10
175.414139 267.049438 10 10
199.376144 264.282196 10 10
frame0206
243.209091 72.359001 10 10
224.083344 88.950241 10 10
184.214844 148.414185 10 10
156.655945 211.596970 10 10
143.280838 224.295471 10 10
175.542480 267.062805 10 10
199.603088 264.273041 10 10
frame0207
245.202515 72.131889 10 10
225.814835 88.433044 10 10
185.765442 147.811996 10 10
157.371582 210.833603 10 10
144.068970 223.224640 10 10
175.797073 266.798737 10 10
199.603699 264.271027 10 10
frame0208
246.981628 72.123825 10 10
227.577774 88.231537 10 10
187.147568 147.194824 10 10
158.410736 209.938461 10 10
144.947037 222.336578 10 10
175.826736 266.825653 10 10
199.625656 264.263123 10 10
frame0209
249.206497 71.909187 10 10
229.398575 88.174965 10 10
188.780640 146.581314 10 10
159.330124 209.167358 10 10
145.848877 221.127136 10 10
175.741898 266.528168 10 10
199.828033 264.216675 10 10
frame0210
251.382904 71.867607 10 10
231.409042 87.875076 10 10
190.321289 145.831711 10 10
160.435547 208.422913 10 10
146.829590 219.906128 10 10
176.112000 266.226349 10 10
199.866608 264.194458 10 10
frame0211
252.957336 71.781624 10 10
233.170349 87.830833 10 10
191.919312 145.335709 10 10
161.504303 207.457123 10 10
147.838440 218.642212 10 10
176.283035 266.053345 10 10
199.840195 263.960022 10 10
frame0212
255.391144 71.467339 10 10
235.415268 87.213715 10 10
193.412521 144.737656 10 10
162.299011 206.632034 10 10
148.600388 217.213593 10 10
176.462296 265.584167 10 10
199.900665 263.945953 10 10
frame0213
257.472107 71.256477 10 10
237.473862 86.936836 10 10
194.988602 143.897415 10 10
163.210358 205.724472 10 10
149.614182 215.957733 10 10
176.730591 265.094482 10 10
199.828751 263.735107 10 10
frame0214
259.706696 71.258850 10 10
239.426941 86.834450 10 10
196.705063 143.238281 10 10
164.437607 204.617966 10 10
150.363968 214.727692 10 10
177.063324 264.992859 10 10
199.899918 263.472809 10 10
frame0215
261.861237 71.122360 10 10
241.793930 86.628052 10 10
198.506912 142.552948 10 10
165.449326 203.725281 10 10
151.593704 213.369919 10 10
177.493256 264.601837 10 10
199.913971 263.246429 10 10
frame0216
264.181641 70.985672 10 10
243.698456 86.288116 10 10
200.138412 141.787186 10 10
166.564087 202.241669 10 10
152.601929 212.126648 10 10
178.085205 264.020782 10 10
199.951950 262.528992 10 10
frame0217
266.440002 70.984215 10 10
245.950485 86.045555 10 10
202.114243 140.877380 10 10
167.909927 201.294434 10 10
153.851898 210.639954 10 10
178.315720 263.246124 10 10
200.201920 262.010529 10 10
frame0218
269.108978 70.783653 10 10
248.210083 86.036819 10 10
203.884094 140.113541 10 10
169.179703 200.291092 10 10
155.093307 209.106750 10 10
178.587784 262.487274 10 10
200.259247 261.594055 10 10
frame0219
271.719818 71.097321 10 10
250.914063 85.476601 10 10
205.777695 139.423615 10 10
170.681931 199.279236 10 10
156.364548 207.615509 10 10
179.156647 261.636353 10 10
200.811279 261.027435 10 10
frame0220
274.086914 71.077576 10 10
253.250504 85.341255 10 10
207.762878 138.706833 10 10
171.887848 198.347244 10 10
157.596344 206.377411 10 10
179.342728 260.492004 10 10
200.793350 260.552216 10 10
frame0221
276.605499 70.827805 10 10
255.825317 85.066162 10 10
209.832642 138.251541 10 10
173.333298 197.025208 10 10
159.045746 204.974579 10 10
179.983383 259.548126 10 10
201.316772 259.921875 10 10
frame0222
279.273712 70.616547 10 10
258.314941 84.813606 10 10
212.004715 137.261337 10 10
174.956619 195.783371 10 10
160.677734 203.639145 10 10
180.602463 258.525635 10 10
201.835068 259.104614 10 10
frame0223
281.794525 70.647827 10 10
260.754578 84.533554 10 10
213.985199 136.799454 10 10
176.527176 194.623856 10 10
162.066376 201.882843 10 10
181.120102 257.412354 10 10
202.191391 258.667267 10 10
frame0224
284.545349 70.337059 10 10
263.230408 84.263481 10 10
216.236893 136.005371 10 10
178.264069 193.493332 10 10
163.602219 200.592804 10 10
181.875946 256.169128 10 10
202.946213 257.927490 10 10
frame0225
287.127441 70.059860 10 10
265.789032 83.784386 10 10
218.710373 135.548355 10 10
179.948563 192.516113 10 10
165.356491 199.250961 10 10
182.705566 255.355438 10 10
203.543564 257.335815 10 10
frame0226
289.893433 70.120537 10 10
268.541077 83.569229 10 10
220.951462 134.861786 10 10
181.924026 191.390518 10 10
167.104919 197.738220 10 10
183.361618 254.163620 10 10
204.235703 256.589722 10 10
frame0227
292.371246 69.821678 10 10
271.091034 83.261978 10 10
223.447037 134.268356 10 10
183.679474 190.591003 10 10
168.733414 196.729340 10 10
184.370651 253.153458 10 10
205.060165 256.066650 10 10
frame0228
295.187225 69.717880 10 10
273.874634 83.056381 10 10
225.471176 133.534561 10 10
185.685059 189.420441 10 10
170.799789 195.174072 10 10
185.328751 252.198471 10 10
205.755203 255.324402 10 10
frame0229
297.946442 69.442558 10 10
276.661133 82.623596 10 10
227.943558 133.101501 10 10
187.654251 188.435867 10 10
172.534393 193.961777 10 10
186.607590 251.186066 10 10
207.016739 254.624542 10 10
frame0230
300.700745 69.354256 10 10
279.390869 82.400749 10 10
230.192978 132.291977 10 10
189.403229 187.440582 10 10
174.391220 192.871872 10 10
187.606781 250.192734 10 10
207.996094 253.921143 10 10
frame0231
303.374847 69.038063 10 10
282.134949 82.154854 10 10
232.700516 132.138535 10 10
191.451096 186.617020 10 10
176.458359 191.516891 10 10
188.856415 249.149796 10 10
209.187195 253.130646 10 10
frame0232
306.146484 68.915077 10 10
284.853638 81.814262 10 10
235.125641 131.353455 10 10
193.425049 185.638916 10 10
178.374985 190.263580 10 10
190.126968 247.904175 10 10
210.455002 252.423309 10 10
frame0233
308.684113 68.678436 10 10
287.411926 81.632011 10 10
237.352295 130.673492 10 10
195.370483 184.810287 10 10
180.369431 189.021408 10 10
191.684418 246.746155 10 10
211.886261 251.716583 10 10
frame0234
311.419800 68.397858 10 10
290.144104 81.197914 10 10
239.755539 130.456131 10 10
197.632370 183.827484 10 10
182.663788 188.007568 10 10
193.197983 245.908630 10 10
213.374191 251.169785 10 10
frame0235
314.178284 68.400955 10 10
292.665466 81.200920 10 10
242.142319 130.007935 10 10
199.384674 183.041626 10 10
184.376480 187.254410 10 10
194.789154 244.817780 10 10
214.720505 250.391281 10 10
frame0236
316.915558 67.973282 10 10
295.414673 80.886322 10 10
244.728790 129.652847 10 10
201.896179 182.315536 10 10
186.684433 186.270203 10 10
196.521072 244.017578 10 10
216.022629 249.731354 10 10
frame0237
319.527924 67.808228 10 10
298.148712 80.762817 10 10
246.986664 129.122314 10 10
203.906784 181.572495 10 10
188.818344 185.544876 10 10
198.355545 243.203186 10 10
217.778046 249.198471 10 10
frame0238
322.178833 67.590210 10 10
300.766724 80.439972 10 10
249.452988 128.647705 10 10
205.985138 181.054733 10 10
190.964844 185.155106 10 10
200.389496 242.739609 10 10
219.536743 248.716507 10 10
frame0239
324.695862 67.308701 10 10
303.220398 80.028923 10 10
251.870956 128.197388 10 10
208.338989 180.663315 10 10
193.089386 184.748337 10 10
202.267319 242.161285 10 10
221.521240 248.189957 10 10
frame0240
327.155212 67.101166 10 10
306.003998 79.606026 10 10
254.246292 128.096130 10 10
210.616226 180.161514 10 10
195.413513 184.425705 10 10
204.327881 241.683792 10 10
223.913696 247.931152 10 10
frame0241
329.683441 66.869362 10 10
308.425842 79.521088 10 10
256.628967 127.562492 10 10
212.861053 179.692368 10 10
197.860016 183.991669 10 10
206.785248 240.957382 10 10
226.392365 247.648041 10 10
frame0242
332.402954 66.587784 10 10
311.115448 79.123100 10 10
258.966187 127.165283 10 10
215.323029 179.422348 10 10
200.088623 183.977692 10 10
209.199158 240.535248 10 10
228.600616 247.359238 10 10
frame0243
334.758240 66.210403 10 10
313.613129 78.946671 10 10
261.444611 126.943764 10 10
217.650635 179.147217 10 10
202.614075 183.986069 10 10
211.709808 240.111694 10 10
231.318375 247.117645 10 10
frame0244
337.323425 65.901108 10 10
316.113770 78.798965 10 10
263.865082 127.022339 10 10
220.190826 179.127258 10 10
205.105957 184.011353 10 10
214.440231 239.858078 10 10
234.073166 247.092834 10 10
frame0245
339.844055 65.666473 10 10
318.635773 78.493164 10 10
266.303131 126.744843 10 10
222.636703 179.121780 10 10
207.213226 184.377945 10 10
217.225235 239.186096 10 10
236.893127 247.093079 10 10
frame0246
342.335846 65.393967 10 10
321.037079 78.258080 10 10
268.853363 126.709610 10 10
225.102600 179.145370 10 10
209.775208 184.398087 10 10
220.015167 238.918274 10 10
240.027039 247.045776 10 10
frame0247
344.745239 65.000397 10 10
323.406647 78.279892 10 10
271.347351 126.649887 10 10
227.628677 179.351837 10 10
212.027145 185.146439 10 10
223.076691 238.403503 10 10
242.754700 246.795044 10 10
frame0248
347.207214 64.990265 10 10
326.107513 78.149445 10 10
273.746185 126.806335 10 10
230.095306 179.680069 10 10
214.639404 185.619049 10 10
226.273697 238.767868 10 10
245.926758 247.010941 10 10
frame0249
349.597565 64.782837 10 10
328.433899 78.148720 10 10
276.372314 126.739899 10 10
232.660980 180.142822 10 10
217.223251 186.298828 10 10
229.267609 239.033859 10 10
249.188736 246.881805 10 10
frame0250
351.984192 64.519112 10 10
331.095123 77.915688 10 10
278.795197 127.136818 10 10
235.379150 180.669891 10 10
219.763107 187.051056 10 10
232.497894 239.295029 10 10
252.443893 247.328812 10 10
frame0251
354.634888 64.263885 10 10
333.604065 77.835602 10 10
281.383087 127.320908 10 10
238.079453 181.230377 10 10
222.363129 188.109619 10 10
235.759933 239.811310 10 10
255.954880 247.435547 10 10
frame0252
356.910461 64.266556 10 10
335.891968 77.745857 10 10
283.878601 127.669792 10 10
240.631653 181.979355 10 10
224.951431 188.934326 10 10
239.131012 240.359329 10 10
259.190430 247.929825 10 10
frame0253
359.227173 64.006302 10 10
338.343109 77.688057 10 10
286.509247 127.838013 10 10
243.407211 182.737610 10 10
227.599503 190.018753 10 10
242.856049 241.212402 10 10
262.720795 248.153961 10 10
frame0254
361.736481 63.775826 10 10
340.894897 77.628815 10 10
289.004425 128.360703 10 10
246.169586 183.471603 10 10
230.351608 191.126770 10 10
246.547913 242.136383 10 10
266.230133 248.685089 10 10
frame0255
363.920624 63.617775 10 10
343.248840 77.674789 10 10
291.556366 128.568420 10 10
248.945786 184.224075 10 10
232.965332 192.402390 10 10
250.048279 242.910843 10 10
269.949951 249.121399 10 10
frame0256
366.343231 63.380295 10 10
345.625732 77.946342 10 10
294.282257 129.127670 10 10
251.957932 185.223511 10 10
235.625015 193.593063 10 10
253.805023 243.863953 10 10
273.675323 249.889847 10 10
frame0257
368.693909 63.237713 10 10
348.138580 77.910240 10 10
296.794983 129.618622 10 10
254.724701 186.227112 10 10
238.653900 194.789383 10 10
257.664063 244.846848 10 10
277.398621 250.350052 10 10
frame0258
371.183289 63.232708 10 10
350.604370 77.814629 10 10
299.267120 130.113861 10 10
257.524811 187.278687 10 10
241.370926 196.244003 10 10
261.366547 245.556122 10 10
281.669647 250.982452 10 10
frame0259
373.320892 63.141094 10 10
352.825897 77.969414 10 10
302.045990 130.755249 10 10
260.500153 188.537674 10 10
244.164078 197.778336 10 10
265.328186 246.364120 10 10
285.466370 251.178543 10 10
frame0260
375.672913 62.782425 10 10
355.115417 78.001076 10 10
304.818695 131.496170 10 10
263.448761 189.603455 10 10
247.170319 199.077759 10 10
269.411316 247.391220 10 10
289.506836 252.035583 10 10
frame0261
377.963715 62.625248 10 10
357.601959 77.977974 10 10
307.544525 132.228119 10 10
266.513763 190.813766 10 10
250.150833 200.837189 10 10
273.836334 248.749023 10 10
293.795410 252.761612 10 10
frame0262
380.246613 62.709869 10 10
359.898590 78.383423 10 10
310.193970 132.852234 10 10
269.491058 192.294739 10 10
253.502823 202.335358 10 10
278.114990 249.446884 10 10
298.058746 253.466156 10 10
frame0263
382.495544 62.618279 10 10
362.208191 78.602333 10 10
312.766205 133.806183 10 10
272.610077 193.700348 10 10
256.658142 204.230652 10 10
282.622864 250.724762 10 10
302.434204 254.223022 10 10
frame0264
384.821564 62.449371 10 10
364.660187 78.740669 10 10
315.498230 134.547684 10 10
275.834686 195.172836 10 10
259.888824 205.930725 10 10
286.768890 251.697220 10 10
306.713226 254.992538 10 10
frame0265
386.833221 62.450958 10 10
366.920624 78.720200 10 10
318.122101 135.588348 10 10
279.089142 196.717010 10 10
263.130829 207.695175 10 10
291.098511 252.924850 10 10
310.921112 255.960693 10 10
frame0266
389.084137 62.456264 10 10
369.160706 79.064911 10 10
321.125153 136.547424 10 10
282.333557 197.929474 10 10
266.390930 209.705734 10 10
295.217834 254.187698 10 10
315.368866 256.751068 10 10
frame0267
391.115326 62.480091 10 10
371.460785 79.139030 10 10
323.891571 137.554550 10 10
285.864960 199.678024 10 10
270.026764 211.700912 10 10
299.993500 255.352402 10 10
319.326843 257.116211 10 10
frame0268
393.371735 62.616253 10 10
373.941528 79.602402 10 10
326.879059 138.588989 10 10
289.096619 201.170380 10 10
273.386017 213.705582 10 10
304.324341 256.670166 10 10
323.869873 258.055725 10 10
frame0269
395.518616 62.628845 10 10
375.910461 79.919266 10 10
329.625458 139.583923 10 10
292.673645 202.797028 10 10
276.993134 215.491592 10 10
308.765167 257.649994 10 10
328.451782 258.930298 10 10
frame0270
397.518433 62.634018 10 10
378.171997 80.191093 10 10
332.371124 140.607635 10 10
296.103394 204.256195 10 10
280.657684 217.401230 10 10
313.461304 258.878479 10 10
332.998230 259.597687 10 10
frame0271
399.552399 62.870285 10 10
380.227112 80.549446 10 10
335.260132 141.805771 10 10
299.612488 206.257172 10 10
284.258759 219.768555 10 10
318.208313 260.087830 10 10
337.851349 260.552460 10 10
frame0272
401.518311 62.950466 10 10
382.459595 81.050743 10 10
338.292328 142.817001 10 10
303.487091 208.003479 10 10
287.922028 221.607040 10 10
322.998474 261.297150 10 10
342.472076 261.527802 10 10
frame0273
403.529755 62.943024 10 10
384.566376 81.348274 10 10
341.219971 144.059998 10 10
306.899536 209.498047 10 10
291.736725 223.588120 10 10
327.754578 262.275208 10 10
347.160858 262.205048 10 10
frame0274
405.527496 62.945827 10 10
386.670959 81.842613 10 10
344.035461 145.252823 10 10
310.890594 211.483154 10 10
295.631378 225.595352 10 10
332.452454 263.704865 10 10
351.928528 262.747833 10 10
frame0275
407.242157 63.402149 10 10
388.664520 82.244621 10 10
346.995514 146.462753 10 10
314.586334 212.993240 10 10
299.313293 228.015091 10 10
337.426819 264.671295 10 10
356.694885 263.820862 10 10
frame0276
409.361359 63.385429 10 10
390.979950 82.749580 10 10
349.973236 147.466858 10 10
318.418152 214.825043 10 10
303.636139 230.014572 10 10
342.421448 265.941589 10 10
361.682251 264.806824 10 10
frame0277
411.245361 63.542900 10 10
392.960449 83.219048 10 10
353.061462 148.733490 10 10
322.387512 216.807663 10 10
307.371460 232.283295 10 10
347.402679 267.181061 10 10
366.499908 265.566986 10 10
frame0278
413.142700 63.672718 10 10
395.175385 83.444679 10 10
356.062317 149.970886 10 10
326.398193 218.551300 10 10
311.544983 234.102539 10 10
352.812927 268.227692 10 10
371.492035 266.218872 10 10
frame0279
414.680725 63.904396 10 10
397.182556 83.910484 10 10
359.056915 150.989441 10 10
330.185150 220.356522 10 10
315.594238 236.105560 10 10
357.597809 269.415314 10 10
376.485687 267.031525 10 10
frame0280
416.741394 64.027504 10 10
399.353821 84.636398 10 10
362.277283 152.030807 10 10
334.234406 222.028809 10 10
320.000854 238.412643 10 10
363.072083 270.743225 10 10
381.312958 267.709534 10 10
frame0281
418.377563 64.135048 10 10
401.211761 84.848885 10 10
365.130859 153.237381 10 10
338.181732 223.692688 10 10
324.211456 240.416153 10 10
368.139648 271.940338 10 10
386.358734 268.205475 10 10
frame0282
420.122864 64.394211 10 10
403.125580 85.350899 10 10
368.286621 154.676147 10 10
342.240082 225.656479 10 10
328.444916 242.507370 10 10
373.687378 272.822693 10 10
391.617523 268.896637 10 10
frame0283
421.756470 64.695633 10 10
405.205139 85.838074 10 10
371.565216 155.734848 10 10
346.756317 227.147095 10 10
332.908203 244.392670 10 10
378.917206 274.255707 10 10
396.879944 269.604126 10 10
frame0284
423.278839 64.958755 10 10
407.057953 86.283066 10 10
374.622742 156.976166 10 10
350.903198 229.051605 10 10
337.685120 246.717072 10 10
384.369537 275.083435 10 10
402.173340 270.337982 10 10
frame0285
425.009430 65.275734 10 10
409.141144 86.794479 10 10
377.734070 157.835175 10 10
354.858521 230.598587 10 10
341.924072 248.581802 10 10
390.135254 276.108490 10 10
406.907318 270.827881 10 10
frame0286
426.490631 65.285187 10 10
411.150635 87.019234 10 10
381.010620 159.027863 10 10
359.395508 232.476776 10 10
346.406769 250.559708 10 10
395.889740 277.081635 10 10
412.407898 271.578125 10 10
frame0287
427.985046 65.299194 10 10
412.909698 87.767967 10 10
384.101074 160.195404 10 10
363.545166 233.937790 10 10
351.101868 251.979797 10 10
401.500214 278.098114 10 10
417.610535 272.088318 10 10
frame0288
429.580688 65.653778 10 10
414.827789 87.913391 10 10
387.387970 161.184006 10 10
368.032532 235.302719 10 10
355.799500 254.086624 10 10
407.010406 279.098236 10 10
422.881195 272.805511 10 10
frame0289
430.957306 65.870819 10 10
416.578888 88.397377 10 10
390.441620 162.421066 10 10
372.421600 237.029938 10 10
360.311981 255.845718 10 10
412.631714 279.866150 10 10
428.103882 273.155548 10 10
frame0290
432.555481 66.134888 10 10
418.309174 88.919075 10 10
393.421143 163.127060 10 10
377.079712 238.555847 10 10
365.073242 257.629089 10 10
418.191559 280.655670 10 10
433.328979 273.675903 10 10
frame0291
433.904449 66.304062 10 10
420.068329 89.385292 10 10
396.779999 164.087906 10 10
381.345856 239.819687 10 10
369.968231 259.009216 10 10
423.938354 281.434448 10 10
438.867828 273.948761 10 10
frame0292
435.286041 66.635651 10 10
421.806793 89.906563 10 10
399.791321 165.081528 10 10
386.065430 241.057083 10 10
374.799072 260.639099 10 10
429.418457 282.090790 10 10
444.119049 274.166595 10 10
frame0293
436.559937 66.893448 10 10
423.562531 90.159203 10 10
402.791992 165.926743 10 10
390.536102 242.318359 10 10
379.566986 262.067352 10 10
434.952637 282.827545 10 10
449.049286 274.588745 10 10
frame0294
437.808777 67.181068 10 10
425.277069 90.898033 10 10
406.006500 166.705139 10 10
394.835724 243.605850 10 10
384.610901 263.690704 10 10
440.452637 283.298248 10 10
454.284607 274.824341 10 10
frame0295
439.069672 67.494423 10 10
426.754120 91.208542 10 10
409.517731 167.684906 10 10
399.805573 244.829605 10 10
389.333710 264.951813 10 10
445.725067 283.799438 10 10
459.578766 275.047821 10 10
frame0296
440.317535 67.768097 10 10
428.269623 91.837151 10 10
412.366516 168.404984 10 10
404.270233 245.837891 10 10
394.056580 266.178070 10 10
451.449341 284.336273 10 10
464.928711 275.306671 10 10
frame0297
441.590515 68.003014 10 10
430.117401 92.229530 10 10
415.714783 169.274734 10 10
408.721771 246.926422 10 10
398.864380 267.641785 10 10
457.028870 284.676788 10 10
470.247559 275.596710 10 10
frame0298
442.575653 68.258583 10 10
431.745300 92.644897 10 10
418.910156 170.030685 10 10
413.609375 247.793808 10 10
403.619781 268.396393 10 10
462.525970 284.988220 10 10
474.968903 275.292572 10 10
frame0299
443.829163 68.668022 10 10
433.287628 93.162323 10 10
422.139343 170.756729 10 10
418.061768 248.699188 10 10
408.695190 269.831726 10 10
468.060211 285.215027 10 10
480.186462 275.229187 10 10
frame0300
444.879791 68.707153 10 10
434.872223 93.663719 10 10
425.146942 171.596710 10 10
422.692352 249.620193 10 10
413.807434 270.799744 10 10
473.510223 285.462463 10 10
485.170898 274.995178 10 10
frame0301
445.896881 68.994530 10 10
436.251373 93.922943 10 10
428.233276 172.001953 10 10
427.067139 250.101913 10 10
418.692810 271.627716 10 10
478.775940 285.465820 10 10
490.426270 275.158173 10 10
frame0302
446.906311 69.245956 10 10
437.887207 94.144218 10 10
431.469421 172.681488 10 10
431.864532 250.966370 10 10
423.353729 272.538605 10 10
484.207489 285.537506 10 10
495.621094 274.968536 10 10
frame0303
447.944641 69.569557 10 10
439.398834 94.720360 10 10
434.449432 173.041458 10 10
436.626007 251.706802 10 10
428.246429 273.285553 10 10
489.445251 285.566681 10 10
500.684875 274.653442 10 10
frame0304
448.928650 69.848083 10 10
440.922760 95.210022 10 10
437.637939 173.608261 10 10
440.852142 252.001785 10 10
433.021057 273.667603 10 10
494.784302 285.238251 10 10
504.804230 273.958191 10 10
frame0305
449.944672 70.188881 10 10
442.369446 95.327797 10 10
440.743439 174.098770 10 10
445.375916 252.594131 10 10
437.712616 274.527100 10 10
500.008118 285.182800 10 10
510.281250 273.859131 10 10
frame0306
450.961639 70.444054 10 10
443.735229 95.771324 10 10
443.627716 174.584366 10 10
449.856018 252.870743 10 10
442.365967 274.819397 10 10
505.376526 284.939667 10 10
515.376892 273.282074 10 10
frame0307
451.967865 70.727997 10 10
445.018921 96.179688 10 10
446.731873 174.967438 10 10
454.174561 253.120132 10 10
447.049408 275.095428 10 10
510.234131 284.641541 10 10
519.845520 272.535980 10 10
frame0308
452.929047 71.073395 10 10
446.607941 96.502396 10 10
449.544128 175.156693 10 10
458.458740 253.694916 10 10
451.573700 275.958954 10 10
515.390747 284.203796 10 10
524.424316 272.106262 10 10
frame0309
453.717010 71.267151 10 10
447.985535 96.761200 10 10
452.251953 175.521790 10 10
462.980957 254.030609 10 10
456.140564 275.981964 10 10
520.654053 283.921844 10 10
529.240906 271.325104 10 10
frame0310
454.547821 71.743874 10 10
449.272614 97.092216 10 10
455.256561 175.750107 10 10
467.140167 254.096756 10 10
460.565338 276.389435 10 10
525.395386 283.371582 10 10
533.794983 270.974548 10 10
frame0311
455.610443 71.926926 10 10
450.401245 97.330070 10 10
458.043579 175.856476 10 10
471.361725 254.199799 10 10
465.054565 276.665100 10 10
530.334534 282.885315 10 10
537.971313 270.381317 10 10
frame0312
456.630371 72.147575 10 10
451.772369 97.777657 10 10
460.625183 176.181259 10 10
475.385284 254.211578 10 10
469.619446 276.933655 10 10
535.096252 282.144409 10 10
542.658508 269.803925 10 10
frame0313
457.665222 72.415283 10 10
453.165955 97.966957 10 10
463.469116 176.267120 10 10
479.475403 254.269684 10 10
473.831390 276.931458 10 10
539.798218 281.704987 10 10
546.405212 269.283722 10 10
frame0314
458.603424 72.951065 10 10
454.405365 98.259712 10 10
466.114502 176.427307 10 10
483.576813 254.268265 10 10
478.201813 277.122711 10 10
544.042358 281.182251 10 10
550.748291 268.603180 10 10
frame0315
459.555206 72.952393 10 10
455.989014 98.585602 10 10
468.595520 176.480270 10 10
487.344330 254.282089 10 10
482.098633 277.129486 10 10
548.286499 280.435120 10 10
554.733948 267.982117 10 10
frame0316
460.581848 73.398834 10 10
457.182281 98.807434 10 10
471.065918 176.480774 10 10
491.060944 254.124115 10 10
486.095917 277.122864 10 10
552.372070 279.638916 10 10
558.614563 267.228058 10 10
frame0317
461.824371 73.759521 10 10
458.413269 99.038040 10 10
473.346710 176.467163 10 10
494.434937 254.018036 10 10
489.841522 277.120880 10 10
556.262512 279.237976 10 10
562.381958 266.760101 10 10
frame0318
462.833710 73.871887 10 10
459.910736 99.059395 10 10
475.785461 176.455597 10 10
497.877045 254.059586 10 10
493.322906 277.161011 10 10
560.146362 278.452271 10 10
565.534912 266.023895 10 10
frame0319
464.045013 74.169205 10 10
461.111145 99.374626 10 10
478.008453 176.457565 10 10
501.135468 254.069473 10 10
496.746552 277.370117 10 10
563.459045 278.093445 10 10
569.146118 265.323273 10 10
frame0320
465.488861 74.280792 10 10
462.806213 99.518539 10 10
480.226532 176.495956 10 10
503.914673 253.902618 10 10
499.985199 277.364502 10 10
566.738525 277.768555 10 10
571.846802 265.123047 10 10
frame0321
466.997162 74.537659 10 10
464.552704 99.817268 10 10
482.425018 176.593536 10 10
506.671356 253.760498 10 10
502.574036 277.374146 10 10
569.164001 277.446198 10 10
574.792969 264.976532 10 10
frame0322
468.763153 74.792221 10 10
466.287354 100.039719 10 10
484.289307 176.572357 10 10
508.963379 253.918793 10 10
505.049805 277.378845 10 10
571.911743 277.293945 10 10
577.333191 264.724213 10 10
frame0323
470.514893 74.931450 10 10
468.066376 100.012230 10 10
486.135132 176.604782 10 10
511.028931 253.924347 10 10
507.102051 277.625458 10 10
574.010132 277.343597 10 10
579.585449 264.803772 10 10
frame0324
472.515900 74.933975 10 10
469.825378 100.029472 10 10
488.122040 177.084366 10 10
512.913452 254.100632 10 10
508.951172 277.688416 10 10
575.988708 277.532654 10 10
581.597900 265.085327 10 10
frame0325
474.251343 75.123222 10 10
471.818939 100.277496 10 10
489.832581 177.010071 10 10
514.478760 254.570023 10 10
510.547119 277.922333 10 10
577.576843 277.857269 10 10
583.645325 265.553955 10 10
frame0326
476.145996 75.144814 10 10
473.569916 100.504959 10 10
491.812653 177.526321 10 10
515.968384 254.562607 10 10
511.844360 278.093597 10 10
578.922791 278.378143 10 10
584.743408 266.277283 10 10
frame0327
478.129791 75.271935 10 10
475.568756 100.503647 10 10
493.030365 177.424728 10 10
517.150208 254.873734 10 10
512.818604 278.305237 10 10
580.046692 278.736694 10 10
586.014343 266.936493 10 10
frame0328
479.903076 75.449188 10 10
477.305908 100.762619 10 10
494.671661 177.759781 10 10
518.177429 255.056366 10 10
513.942200 278.573700 10 10
581.109070 279.341095 10 10
587.298828 267.631195 10 10
frame0329
481.741547 75.462555 10 10
479.223328 100.768837 10 10
495.940674 178.086639 10 10
519.156372 255.310394 10 10
514.544678 278.716858 10 10
581.975281 280.059235 10 10
588.239685 268.611542 10 10
frame0330
483.712158 75.736824 10 10
480.738617 101.003555 10 10
497.265717 178.275681 10 10
520.140869 255.782379 10 10
515.262268 278.953583 10 10
582.693787 280.844208 10 10
589.195801 269.418549 10 10
frame0331
485.179077 75.759392 10 10
482.305481 101.246017 10 10
498.513794 178.553680 10 10
520.888062 256.214172 10 10
515.790894 279.131500 10 10
583.122375 281.855438 10 10
590.022156 270.253204 10 10
frame0332
486.929749 76.021622 10 10
483.739075 101.507149 10 10
499.476959 179.008331 10 10
521.410889 256.491455 10 10
516.303345 279.380463 10 10
583.387146 282.562866 10 10
590.686584 271.112122 10 10
frame0333
488.405518 76.434715 10 10
485.317352 101.758842 10 10
500.473053 179.003342 10 10
521.944275 256.946899 10 10
516.579041 279.647247 10 10
583.864685 283.218994 10 10
591.199463 271.927124 10 10
frame0334
490.009979 76.470673 10 10
486.655579 101.883087 10 10
501.523590 179.552872 10 10
522.523743 256.946411 10 10
516.820801 279.906158 10 10
584.169861 284.168274 10 10
591.886230 272.941132 10 10
frame0335
491.489471 76.639778 10 10
487.939026 102.330299 10 10
502.523804 179.829163 10 10
522.891602 257.502502 10 10
517.025513 280.147888 10 10
584.530029 285.046387 10 10
592.617188 273.900421 10 10
frame0336
493.069122 77.024170 10 10
489.431946 102.607582 10 10
503.238068 180.336639 10 10
523.129700 257.768463 10 10
517.030151 280.402863 10 10
584.582581 285.848083 10 10
593.112427 274.617523 10 10
frame0337
494.396790 77.158035 10 10
490.445404 102.832512 10 10
504.002563 180.571381 10 10
523.402954 258.168091 10 10
517.051208 280.665649 10 10
584.837708 286.604919 10 10
593.318726 275.594543 10 10
frame0338
495.758209 77.428764 10 10
491.703430 103.071419 10 10
504.790741 181.078140 10 10
523.646729 258.541321 10 10
517.297607 281.018005 10 10
584.974304 287.458740 10 10
593.364563 276.576324 10 10
frame0339
496.964539 77.724403 10 10
492.698608 103.501030 10 10
505.254639 181.341110 10 10
524.044373 258.987000 10 10
517.319214 281.305969 10 10
584.954529 288.414398 10 10
593.355652 277.316193 10 10
frame0340
498.345428 78.146141 10 10
493.932495 103.781837 10 10
505.761597 181.801804 10 10
524.041077 259.226715 10 10
517.109802 281.591064 10 10
584.949463 289.295105 10 10
593.134949 278.307861 10 10
frame0341
499.344574 78.269409 10 10
494.833984 104.118942 10 10
506.533173 182.103104 10 10
524.045776 259.747559 10 10
517.130920 282.034332 10 10
584.801453 289.975311 10 10
593.157532 279.301819 10 10
frame0342
500.336182 78.793526 10 10
495.815887 104.258812 10 10
506.937500 182.615799 10 10
524.049683 260.215576 10 10
516.916992 282.266541 10 10
584.789001 290.707428 10 10
593.104126 280.338135 10 10
frame0343
501.603027 79.138054 10 10
496.828186 104.743599 10 10
507.513580 183.107285 10 10
524.162903 260.706116 10 10
516.928101 282.801239 10 10
584.705994 291.587311 10 10
592.737305 281.240906 10 10
frame0344
502.637543 79.399384 10 10
497.834351 105.008934 10 10
507.949890 183.321915 10 10
524.160583 260.997498 10 10
516.898315 283.026093 10 10
584.627625 292.314636 10 10
592.616516 282.280212 10 10
frame0345
503.885284 79.794807 10 10
498.864960 105.252739 10 10
508.519897 183.866425 10 10
524.176208 261.449158 10 10
516.664978 283.313263 10 10
586.209290 292.791260 10 10
592.683472 283.215973 10 10
frame0346
504.894287 80.165459 10 10
499.752960 105.787941 10 10
508.765839 184.213013 10 10
524.434204 261.483734 10 10
516.653137 283.561584 10 10
587.181458 293.087341 10 10
592.528198 284.185242 10 10
frame0347
505.841705 80.402153 10 10
500.492737 106.039543 10 10
509.518982 184.470581 10 10
524.686523 261.756042 10 10
516.653809 283.567230 10 10
587.411255 293.581940 10 10
592.819641 284.761871 10 10
frame0348
506.794647 80.785324 10 10
501.493500 106.290634 10 10
510.036285 184.963821 10 10
525.280090 261.952911 10 10
516.892944 283.574371 10 10
587.507263 293.853394 10 10
593.522217 285.200165 10 10
frame0349
507.642487 80.819519 10 10
502.223419 106.558220 10 10
510.805481 184.964691 10 10
526.143066 261.828522 10 10
517.654785 283.568756 10 10
587.277649 294.155121 10 10
594.427368 285.637177 10 10
frame0350
508.499298 81.148201 10 10
502.978943 106.795311 10 10
511.543823 185.368225 10 10
526.901733 261.868683 10 10
517.900757 283.307312 10 10
586.669739 294.015198 10 10
595.421265 286.316223 10 10
frame0351
509.298035 81.127449 10 10
503.957886 107.128494 10 10
512.659912 185.407043 10 10
527.587097 261.722168 10 10
518.658630 283.024689 10 10
587.222717 294.219513 10 10
596.267151 286.588165 10 10
frame0352
510.306946 81.125458 10 10
504.834381 106.988022 10 10
513.374146 185.400970 10 10
528.057800 261.930084 10 10
518.671753 283.035828 10 10
587.474548 294.230011 10 10
596.675110 286.754395 10 10
frame0353
511.312683 81.076691 10 10
506.080383 106.990021 10 10
514.375793 185.402603 10 10
528.411133 261.949799 10 10
518.830688 282.950653 10 10
587.487000 294.210541 10 10
597.326172 286.991302 10 10
frame0354
512.379944 80.996994 10 10
507.072754 106.796486 10 10
515.659180 185.403900 10 10
528.659058 261.731049 10 10
519.039673 282.948456 10 10
587.770142 294.267578 10 10
597.279358 286.998047 10 10
frame0355
513.392151 80.914551 10 10
508.070404 106.797722 10 10
516.302368 185.209900 10 10
528.534485 261.804474 10 10
519.036621 282.956787 10 10
587.764404 294.265961 10 10
597.306091 287.201202 10 10
frame0356
514.642212 80.668282 10 10
509.301971 106.536324 10 10
517.288452 185.200745 10 10
528.543274 261.720612 10 10
519.035095 282.961365 10 10
587.489258 294.194153 10 10
597.330994 286.997681 10 10
frame0357
515.789490 80.417610 10 10
510.688385 106.254997 10 10
517.822571 185.220993 10 10
528.780945 261.971008 10 10
519.047119 282.843079 10 10
587.589905 294.178070 10 10
597.216980 287.064362 10 10
frame0358
517.055969 80.175957 10 10
511.797363 105.985016 10 10
518.593018 185.222351 10 10
528.794983 261.916077 10 10
519.042419 282.855804 10 10
587.592834 294.177216 10 10
597.021484 287.027435 10 10
frame0359
518.174194 79.871208 10 10
512.815674 105.793465 10 10
519.319092 185.209518 10 10
528.779846 261.976959 10 10
519.041016 282.860443 10 10
587.596741 294.189087 10 10
597.235596 287.049713 10 10
frame0360
519.291199 79.730850 10 10
513.666687 105.574760 10 10
519.574951 184.978424 10 10
528.792114 261.919434 10 10
518.822388 282.853668 10 10
587.597290 294.190277 10 10
597.226868 287.055756 10 10
frame0361
520.292419 79.320465 10 10
514.493286 105.314453 10 10
520.074524 184.983368 10 10
528.792053 261.919189 10 10
518.826355 282.845337 10 10
587.336182 294.184906 10 10
597.033997 287.028961 10 10
frame0362
521.278503 79.126076 10 10
515.224121 105.053215 10 10
520.346863 184.882706 10 10
528.748962 261.715088 10 10
518.822693 283.109711 10 10
587.341980 294.187500 10 10
597.037842 287.030060 10 10
frame0363
521.995239 79.094627 10 10
515.654785 105.062286 10 10
520.770508 184.701706 10 10
528.760559 261.939850 10 10
518.839539 283.186340 10 10
587.520996 294.256714 10 10
597.039063 287.029663 10 10
frame0364
522.747131 79.093819 10 10
516.118286 105.054939 10 10
521.003967 184.709167 10 10
528.772766 261.881073 10 10
518.839783 283.186005 10 10
587.520813 294.256165 10 10
597.043091 287.028687 10 10
frame0365
523.642822 78.897781 10 10
516.642029 104.853027 10 10
521.000366 184.743378 10 10
528.523376 261.928009 10 10
518.791992 283.384888 10 10
587.726624 294.422882 10 10
597.345337 287.136047 10 10
frame0366
524.367004 78.661552 10 10
517.090393 104.604507 10 10
520.998962 184.743912 10 10
528.524536 261.929474 10 10
518.797485 283.378143 10 10
587.720459 294.422791 10 10
597.101868 287.122681 10 10
frame0367
525.055603 78.477287 10 10
517.644409 104.761665 10 10
521.002991 184.739105 10 10
528.376953 262.166931 10 10
518.794922 283.656494 10 10
587.434692 294.430206 10 10
597.118958 287.113708 10 10
frame0368
525.837097 78.506912 10 10
518.105347 104.606369 10 10
521.004456 184.736038 10 10
528.364014 262.095093 10 10
518.794922 283.656433 10 10
587.434998 294.431213 10 10
597.120422 287.113892 10 10
frame0369
526.623535 78.475426 10 10
518.694336 104.579208 10 10
521.002075 184.729111 10 10
528.383911 262.178070 10 10
518.793396 283.657990 10 10
587.721985 294.418243 10 10
597.047363 287.075409 10 10
frame0370
527.155701 78.189896 10 10
519.145874 104.299431 10 10
521.001587 184.733688 10 10
528.320618 262.078064 10 10
518.789734 283.654358 10 10
587.430786 294.431366 10 10
597.061890 287.069153 10 10
frame0371
527.839294 78.151230 10 10
519.685059 104.301888 10 10
521.237793 184.727020 10 10
528.320618 262.079010 10 10
518.596558 283.692444 10 10
587.430542 294.430481 10 10
597.062805 287.069427 10 10
frame0372
528.533386 77.946106 10 10
520.144226 104.292946 10 10
521.519836 184.463486 10 10
528.320801 262.078918 10 10
518.331299 283.775238 10 10
587.380005 294.325531 10 10
597.066040 287.070282 10 10
frame0373
529.229004 78.007225 10 10
520.689636 104.062469 10 10
521.786133 184.702728 10 10
528.185547 262.026550 10 10
518.331177 283.775116 10 10
587.380737 294.326019 10 10
597.078125 287.075775 10 10
frame0374
529.946838 77.930984 10 10
521.152954 104.046982 10 10
522.248779 184.478149 10 10
528.173828 262.179230 10 10
518.330933 283.780029 10 10
587.380798 294.330627 10 10
597.081177 287.075928 10 10
frame0375
530.530884 77.889221 10 10
522.167175 104.050148 10 10
522.783386 184.429398 10 10
528.165527 262.025421 10 10
518.331482 283.779633 10 10
587.409607 294.148987 10 10
597.068481 287.085999 10 10
frame0376
530.961548 77.668221 10 10
522.706116 104.037674 10 10
523.260376 184.477798 10 10
528.166382 262.029388 10 10
518.343567 283.996857 10 10
587.416016 294.153320 10 10
597.069946 287.086639 10 10
frame0377
531.704529 77.881973 10 10
523.425842 103.707275 10 10
523.619080 184.441360 10 10
528.318176 262.348389 10 10
518.343933 283.998932 10 10
587.413513 294.151154 10 10
597.068787 287.086670 10 10
frame0378
532.441284 77.642876 10 10
524.179504 103.721375 10 10
523.853882 184.445297 10 10
528.278931 262.273193 10 10
518.344421 284.003510 10 10
587.377991 294.275818 10 10
596.679871 286.965302 10 10
frame0379
533.019775 77.840141 10 10
524.709290 103.737823 10 10
524.168091 184.484085 10 10
528.289063 262.117523 10 10
518.344299 283.994415 10 10
587.377930 294.278687 10 10
596.679932 286.965302 10 10
frame0380
533.830505 77.712563 10 10
525.291077 103.695305 10 10
524.716125 184.653519 10 10
528.289063 262.339996 10 10
518.344421 283.995667 10 10
587.379700 294.278595 10 10
596.693665 286.975159 10 10
frame0381
534.583618 77.828339 10 10
526.054504 103.788078 10 10
525.027771 184.671814 10 10
528.291199 262.339417 10 10
518.344482 283.989929 10 10
587.378052 294.277527 10 10
596.734314 286.978882 10 10
frame0382
535.207520 77.832878 10 10
526.687927 103.788879 10 10
525.235535 184.684875 10 10
528.291565 262.339783 10 10
518.344116 283.982513 10 10
587.380615 294.276642 10 10
596.735168 286.978394 10 10
frame0383
535.945007 77.946571 10 10
527.215454 103.755020 10 10
525.701782 184.659424 10 10
528.276978 262.194214 10 10
518.344055 283.985443 10 10
587.376038 294.275024 10 10
596.736633 286.978302 10 10
frame0384
536.714111 77.850563 10 10
527.890137 104.093300 10 10
525.914063 184.683182 10 10
528.417053 262.462982 10 10
518.341431 283.962555 10 10
587.375977 294.272339 10 10
596.827454 286.891479 10 10
frame0385
537.509094 77.732460 10 10
528.408752 104.074532 10 10
526.094055 184.936523 10 10
528.538208 262.454437 10 10
518.341553 283.963806 10 10
587.375000 294.273071 10 10
596.825378 286.892395 10 10
frame0386
538.022522 77.712593 10 10
529.150635 104.069069 10 10
526.411743 184.950958 10 10
528.539429 262.454468 10 10
518.341553 283.963593 10 10
587.369629 294.271118 10 10
596.820374 286.886139 10 10
frame0387
539.084351 77.859970 10 10
529.686951 104.268623 10 10
526.995300 185.112503 10 10
528.527405 262.624664 10 10
518.341858 283.966034 10 10
587.369019 294.276123 10 10
596.689819 287.158813 10 10
frame0388
539.770203 78.004875 10 10
530.519958 104.262672 10 10
527.235168 185.113007 10 10
528.799072 262.472717 10 10
518.369812 283.969269 10 10
587.369141 294.275543 10 10
596.656189 287.160797 10 10
frame0389
540.595825 78.075386 10 10
531.161133 104.297058 10 10
527.625427 185.365387 10 10
528.799500 262.472778 10 10
518.369629 283.966736 10 10
587.370361 294.275635 10 10
596.862549 287.131195 10 10
frame0390
541.269653 78.129471 10 10
531.709839 104.280167 10 10
527.722778 185.365280 10 10
528.762817 262.500641 10 10
518.369873 283.971100 10 10
587.548523 294.317749 10 10
596.842773 287.124054 10 10
frame0391
541.919922 78.255608 10 10
532.627747 104.376366 10 10
528.340820 185.569077 10 10
528.795715 262.482574 10 10
518.369812 283.971222 10 10
587.548828 294.318665 10 10
596.842529 287.123901 10 10
frame0392
542.878479 78.135872 10 10
533.329895 104.383064 10 10
528.616333 185.601517 10 10
528.796326 262.482513 10 10
518.369934 283.974304 10 10
587.548584 294.318085 10 10
596.826111 287.113739 10 10
frame0393
543.704590 78.172142 10 10
534.158875 104.299980 10 10
529.114197 185.643036 10 10
528.791870 262.647339 10 10
518.183228 283.998962 10 10
587.567810 294.359406 10 10
596.584290 287.078613 10 10
frame0394
544.638855 78.109009 10 10
534.685364 104.311134 10 10
529.523621 185.620560 10 10
529.049561 262.642548 10 10
518.364502 284.031799 10 10
587.567749 294.356415 10 10
596.584229 287.078613 10 10
frame0395
545.214172 78.126022 10 10
535.576721 104.369926 10 10
530.093201 185.780472 10 10
529.122986 262.686920 10 10
518.438293 283.948853 10 10
587.563293 294.442841 10 10
596.838135 287.314941 10 10
frame0396
546.289368 78.206085 10 10
536.295105 104.371712 10 10
530.383850 185.797379 10 10
529.123230 262.687836 10 10
518.428833 283.979919 10 10
587.564697 294.442474 10 10
596.868591 287.309845 10 10
frame0397
547.066223 78.133240 10 10
537.045166 104.388512 10 10
530.995422 185.727722 10 10
529.123352 262.688049 10 10
518.412659 284.003632 10 10
587.564636 294.442566 10 10
596.867615 287.310730 10 10
frame0398
547.798889 78.279396 10 10
537.700134 104.363548 10 10
531.300171 185.785294 10 10
529.132935 263.041168 10 10
518.413025 284.000702 10 10
587.565247 294.444275 10 10
596.841736 287.312073 10 10
frame0399
548.532776 78.287552 10 10
538.442627 104.364227 10 10
531.803772 186.030838 10 10
529.133057 263.042236 10 10
518.417114 284.001648 10 10
587.309570 294.451965 10 10
596.874878 287.318359 10 10
frame0400
549.528992 78.284142 10 10
539.361084 104.427269 10 10
532.292114 186.022919 10 10
529.136353 263.112061 10 10
518.408936 284.208160 10 10
587.549072 294.483215 10 10
596.936279 287.350586 10 10
frame0401
550.271851 78.287704 10 10
539.967224 104.626488 10 10
532.561218 186.246506 10 10
529.136230 263.111542 10 10
518.408203 284.205414 10 10
587.562317 294.779419 10 10
596.971619 287.343506 10 10
frame0402
551.015625 78.407700 10 10
540.685608 104.676132 10 10
532.805176 186.244827 10 10
529.272522 263.119232 10 10
518.411072 284.196960 10 10
587.559387 294.773560 10 10
597.076477 287.390289 10 10
frame0403
552.010376 78.398872 10 10
541.237183 104.733337 10 10
533.283630 186.239426 10 10
529.272583 263.119202 10 10
518.410889 284.183868 10 10
587.451782 294.746521 10 10
596.913208 287.389069 10 10
frame0404
552.773438 78.411560 10 10
541.988464 104.760757 10 10
533.566711 186.240845 10 10
529.272583 263.119171 10 10
518.411377 284.190399 10 10
587.455994 294.747589 10 10
596.915405 287.388397 10 10
frame0405
553.510620 78.516151 10 10
542.720276 104.790039 10 10
533.930237 186.405380 10 10
529.273010 263.119049 10 10
518.415100 284.079590 10 10
587.455750 294.747467 10 10
596.914246 287.388672 10 10
frame0406
554.502563 78.514030 10 10
543.404785 104.865471 10 10
534.177917 186.407364 10 10
529.265442 263.226013 10 10
518.412537 284.099213 10 10
587.453613 294.746918 10 10
596.916626 287.387085 10 10
frame0407
555.144226 78.703354 10 10
544.072876 104.839417 10 10
534.696533 186.369568 10 10
529.149597 263.224365 10 10
518.317383 284.124512 10 10
587.448792 294.745636 10 10
596.915100 287.386749 10 10
frame0408
555.973938 78.573128 10 10
544.750793 105.040092 10 10
534.927490 186.376007 10 10
529.149597 263.224274 10 10
518.317261 284.134064 10 10
587.448486 294.744995 10 10
596.914185 287.389069 10 10
frame0409
556.711548 78.825714 10 10
545.486755 105.042671 10 10
535.442566 186.547974 10 10
529.309265 263.172150 10 10
518.317871 284.143036 10 10
587.447266 294.744751 10 10
596.913025 287.388489 10 10
frame0410
557.466125 78.763138 10 10
546.101807 104.825897 10 10
535.699158 186.376892 10 10
529.310669 263.169281 10 10
518.317749 284.142548 10 10
587.447021 294.744781 10 10
596.913208 287.388550 10 10
frame0411
557.991150 78.941811 10 10
546.651672 105.033150 10 10
535.980530 186.385040 10 10
529.308838 263.170776 10 10
518.314087 284.138031 10 10
587.447205 294.744751 10 10
596.906311 287.389893 10 10
frame0412
558.775757 78.887680 10 10
547.112671 105.038513 10 10
536.170532 186.563141 10 10
529.308838 263.170471 10 10
518.314026 284.137909 10 10
587.448242 294.746826 10 10
596.977905 287.399292 10 10
frame0413
559.295715 79.005814 10 10
547.853760 105.029350 10 10
536.742554 186.666763 10 10
529.308350 263.170898 10 10
518.313965 284.138245 10 10
587.741333 294.767792 10 10
596.933167 287.400543 10 10
frame0414
560.057800 78.861580 10 10
548.444885 105.081383 10 10
536.963684 186.653290 10 10
529.308533 263.170441 10 10
518.312927 284.137482 10 10
587.441223 294.783203 10 10
597.010742 287.434692 10 10
frame0415
560.518066 79.006645 10 10
548.902405 105.083763 10 10
536.969238 186.653992 10 10
529.308716 263.169952 10 10
518.180054 284.133484 10 10
587.440735 294.783112 10 10
597.010132 287.434387 10 10
frame0416
561.243164 79.022423 10 10
549.387329 105.089180 10 10
537.218018 186.676010 10 10
529.309326 263.169830 10 10
518.179993 284.133087 10 10
587.439758 294.783936 10 10
597.045288 287.430023 10 10
frame0417
561.722778 79.056297 10 10
549.684875 105.322090 10 10
537.726196 186.674606 10 10
529.454834 263.186127 10 10
518.176514 284.131195 10 10
587.419495 294.769104 10 10
597.065186 287.431396 10 10
frame0418
562.100891 79.112091 10 10
550.149475 105.092941 10 10
537.971252 186.674881 10 10
529.455078 263.186005 10 10
518.176819 284.130951 10 10
587.420837 294.769958 10 10
597.040649 287.433289 10 10
frame0419
562.668701 79.179832 10 10
550.900452 105.052780 10 10
537.962830 186.683701 10 10
529.436584 262.987946 10 10
518.176575 284.130005 10 10
587.425781 294.781647 10 10
597.035461 287.406555 10 10
frame0420
563.127075 79.060356 10 10
551.081787 105.037155 10 10
538.207397 186.684341 10 10
529.437012 262.984833 10 10
518.219788 283.964905 10 10
587.424805 294.775604 10 10
597.011963 287.437042 10 10
frame0421
563.390869 79.190582 10 10
551.604431 105.102150 10 10
538.479919 186.680222 10 10
529.437073 262.985138 10 10
518.219849 283.965546 10 10
587.428650 294.777008 10 10
597.023315 287.438446 10 10
frame0422
563.670532 79.055893 10 10
551.848755 105.109795 10 10
538.637573 186.600449 10 10
529.437195 262.985382 10 10
518.220215 283.965668 10 10
587.429199 294.776672 10 10
597.010193 287.433411 10 10
frame0423
564.237671 79.198135 10 10
552.242065 105.032593 10 10
538.638428 186.606049 10 10
529.574890 262.984894 10 10
518.219482 283.962646 10 10
587.456970 294.770569 10 10
596.985718 287.434753 10 10
frame0424
564.675171 79.158630 10 10
552.510620 105.034492 10 10
538.905334 186.280029 10 10
529.575500 262.984955 10 10
518.221130 283.946320 10 10
587.459167 294.770721 10 10
596.992126 287.432648 10 10
frame0425
565.080811 79.138985 10 10
552.879578 105.070007 10 10
539.059448 186.563843 10 10
529.628906 263.026733 10 10
518.204407 283.960693 10 10
587.461975 294.811279 10 10
597.055542 287.526642 10 10
frame0426
565.327148 79.137100 10 10
553.096191 105.058014 10 10
539.059509 186.566620 10 10
529.470520 263.023743 10 10
518.203918 283.961914 10 10
587.462524 294.812714 10 10
597.037109 287.527832 10 10
frame0427
565.606506 79.391312 10 10
553.096558 105.056618 10 10
539.060120 186.563278 10 10
529.629211 263.033478 10 10
518.204102 283.965424 10 10
587.483215 294.803680 10 10
597.039490 287.527466 10 10
frame0428
565.953796 79.191971 10 10
553.613098 105.060844 10 10
539.405762 186.547440 10 10
529.629272 263.033722 10 10
518.203369 283.965668 10 10
587.481201 294.802948 10 10
597.040222 287.527466 10 10
frame0429
566.350464 79.136848 10 10
553.871826 105.047714 10 10
539.405579 186.547867 10 10
529.632080 263.033234 10 10
518.200256 283.957367 10 10
587.470337 294.803284 10 10
597.070007 287.579315 10 10
frame0430
566.627563 79.137039 10 10
554.120605 105.046112 10 10
539.648865 186.545639 10 10
529.632446 263.034698 10 10
518.200378 283.960388 10 10
587.469666 294.803375 10 10
596.826294 287.564026 10 10
frame0431
566.963806 79.200615 10 10
554.380310 105.053886 10 10
539.655579 186.540680 10 10
529.632568 263.037750 10 10
518.190125 283.955566 10 10
587.469177 294.803558 10 10
597.107239 287.567993 10 10
frame0432
567.093994 79.202782 10 10
554.640564 105.047585 10 10
539.661438 186.536301 10 10
529.580383 263.066956 10 10
518.180847 283.944519 10 10
587.356079 294.782959 10 10
597.077454 287.759796 10 10
frame0433
567.457092 79.165665 10 10
554.856445 105.050041 10 10
539.858154 186.490997 10 10
529.581360 263.064972 10 10
517.929871 283.937347 10 10
587.353210 294.781677 10 10
597.075806 287.758972 10 10
frame0434
567.772095 79.141411 10 10
555.108704 105.039024 10 10
539.955750 186.473404 10 10
529.580627 263.015106 10 10
518.042175 283.946228 10 10
587.356079 294.782593 10 10
597.076416 287.764984 10 10
frame0435
568.144470 79.469933 10 10
555.417480 105.057213 10 10
539.954285 186.470947 10 10
529.578064 263.013062 10 10
517.922791 283.883667 10 10
587.353516 294.781921 10 10
597.061707 287.766113 10 10
frame0436
568.261536 79.436646 10 10
555.837646 105.047935 10 10
540.104309 186.486343 10 10
529.478821 262.910492 10 10
517.907410 283.893219 10 10
587.355896 294.782257 10 10
597.066772 287.765869 10 10
frame0437
568.786743 79.608757 10 10
555.830994 105.156418 10 10
540.104614 186.475021 10 10
529.333008 263.093323 10 10
517.886047 284.077087 10 10
587.353027 294.781525 10 10
597.065186 287.761597 10 10
frame0438
569.243591 79.580925 10 10
556.296814 105.091698 10 10
540.324463 186.402420 10 10
529.332642 263.094666 10 10
517.806030 284.074615 10 10
587.198608 294.834778 10 10
597.034058 287.745270 10 10
frame0439
569.644653 79.480476 10 10
556.367920 105.084412 10 10
540.502747 186.419403 10 10
529.331970 263.096497 10 10
517.793762 284.079193 10 10
587.197266 294.834351 10 10
597.033630 287.747711 10 10
frame0440
569.948669 79.484886 10 10
556.727966 105.166550 10 10
540.502625 186.419724 10 10
529.332031 263.097382 10 10
517.789246 284.084930 10 10
587.199585 294.834717 10 10
597.037720 287.750183 10 10
frame0441
570.193237 79.658157 10 10
556.969299 105.167404 10 10
540.503357 186.419754 10 10
529.331055 263.099396 10 10
517.786255 284.077240 10 10
587.195862 294.834412 10 10
597.024597 287.752563 10 10
frame0442
570.445068 79.654945 10 10
557.434448 105.260742 10 10
540.872742 186.412415 10 10
529.477905 263.103516 10 10
517.791016 284.079285 10 10
586.972839 294.839417 10 10
597.082703 287.745087 10 10
frame0443
570.863281 79.737274 10 10
557.780945 105.169342 10 10
541.109436 186.428040 10 10
529.437073 263.316132 10 10
517.800232 284.078674 10 10
587.159912 294.767303 10 10
597.056091 287.765198 10 10
frame0444
571.227722 79.713242 10 10
558.020691 105.444298 10 10
541.109863 186.427841 10 10
529.285767 263.264465 10 10
517.827820 284.058899 10 10
587.145935 295.001801 10 10
597.005127 287.987488 10 10
frame0445
571.490234 79.722046 10 10
558.343323 105.469063 10 10
541.232849 186.516403 10 10
529.302124 263.059509 10 10
517.832886 284.067200 10 10
586.926636 295.018005 10 10
597.073242 287.759033 10 10
frame0446
571.912048 79.828537 10 10
558.665344 105.436646 10 10
541.491089 186.486115 10 10
529.316956 263.108429 10 10
517.826355 284.065765 10 10
586.925842 295.016846 10 10
597.035095 287.991089 10 10
frame0447
572.279480 79.964302 10 10
558.890564 105.445915 10 10
541.644165 186.496323 10 10
529.315552 263.109528 10 10
517.793396 284.019958 10 10
587.154297 295.089081 10 10
596.989136 287.991211 10 10
frame0448
572.547363 80.006256 10 10
559.135803 105.450256 10 10
541.771606 186.570877 10 10
529.314148 263.111176 10 10
517.803772 284.031311 10 10
587.147827 295.091095 10 10
596.975769 287.989868 10 10
frame0449
573.023376 80.116638 10 10
559.603516 105.450111 10 10
541.782166 186.586044 10 10
529.424805 263.111847 10 10
517.855652 284.052368 10 10
587.099548 295.029144 10 10
596.810242 287.968292 10 10
frame0450
573.177246 80.111946 10 10
559.863403 105.453362 10 10
542.025085 186.591446 10 10
529.347595 263.169769 10 10
517.862427 284.050232 10 10
587.097229 295.030243 10 10
596.818787 287.967102 10 10
frame0451
573.606812 80.067688 10 10
560.221680 105.448509 10 10
542.115662 186.588928 10 10
529.350342 263.164551 10 10
517.868591 284.040497 10 10
587.093140 295.018524 10 10
596.837585 287.968201 10 10
frame0452
574.043457 80.062157 10 10
560.450989 105.539902 10 10
542.280273 186.721939 10 10
529.365356 263.210052 10 10
517.877014 284.040314 10 10
587.092163 295.029236 10 10
596.837524 287.965210 10 10
frame0453
574.156250 80.042969 10 10
560.758789 105.652779 10 10
542.412476 186.722916 10 10
529.364136 263.209534 10 10
517.880127 284.241943 10 10
587.078979 295.245087 10 10
597.023621 287.916046 10 10
frame0454
574.707825 80.115440 10 10
561.047058 105.677277 10 10
542.411926 186.728668 10 10
529.331604 263.183777 10 10
517.640808 284.248322 10 10
587.077881 295.231903 10 10
597.198608 288.050690 10 10
frame0455
575.170471 80.236893 10 10
561.432617 105.661842 10 10
542.676270 186.679306 10 10
529.230835 263.174255 10 10
517.647461 284.132538 10 10
587.273315 295.203400 10 10
597.136597 288.056091 10 10
frame0456
575.229858 80.236969 10 10
561.458374 105.440460 10 10
542.794922 186.770538 10 10
529.229309 263.174774 10 10
517.878540 283.904236 10 10
587.043579 295.210236 10 10
597.141968 288.040497 10 10
frame0457
575.795227 80.218803 10 10
561.804138 105.653732 10 10
542.922668 186.662827 10 10
529.086914 263.198395 10 10
517.866333 284.106018 10 10
587.047729 295.217377 10 10
597.114685 288.009064 10 10
frame0458
575.788818 80.298447 10 10
562.084290 105.639839 10 10
542.902222 186.687912 10 10
529.097351 263.193146 10 10
517.806030 284.041168 10 10
587.105469 295.252930 10 10
597.025085 288.014404 10 10
frame0459
576.151428 80.242912 10 10
562.308044 105.694878 10 10
543.012817 186.661346 10 10
529.097900 263.194885 10 10
517.810547 284.031311 10 10
587.116882 295.255493 10 10
597.046570 288.002228 10 10
frame0460
576.701721 80.346466 10 10
562.674988 105.726410 10 10
543.136597 186.682114 10 10
529.098511 263.195221 10 10
517.574768 284.035431 10 10
587.124451 295.267914 10 10
597.019226 287.985535 10 10
frame0461
576.988953 80.291245 10 10
563.034851 105.704849 10 10
543.134521 186.686295 10 10
529.099121 263.197083 10 10
517.572998 284.044556 10 10
587.277100 295.501709 10 10
597.014954 287.957001 10 10
frame0462
577.441040 80.380157 10 10
563.301208 105.698830 10 10
543.287109 186.419510 10 10
529.113647 263.020294 10 10
517.573364 284.043854 10 10
587.037842 295.511108 10 10
596.916992 288.047577 10 10
frame0463
577.693115 80.617081 10 10
563.673462 105.741982 10 10
543.420532 186.697037 10 10
529.114990 263.023071 10 10
517.638794 284.035004 10 10
587.100037 295.419342 10 10
596.853699 288.027130 10 10
frame0464
578.414795 80.584999 10 10
564.057007 105.715233 10 10
543.422363 186.694290 10 10
529.105835 263.207520 10 10
517.642212 284.018372 10 10
587.094849 295.418945 10 10
596.751221 288.121033 10 10
frame0465
578.508972 80.470398 10 10
564.316895 105.942368 10 10
543.514893 186.797607 10 10
528.998718 263.030701 10 10
517.648560 284.013947 10 10
587.110229 295.469177 10 10
596.743835 288.109436 10 10
frame0466
579.166199 80.601547 10 10
564.795959 105.942757 10 10
543.911438 186.663193 10 10
529.083435 263.004425 10 10
517.649414 284.017548 10 10
587.105408 295.469818 10 10
597.049255 288.326447 10 10
frame0467
579.586670 80.850586 10 10
565.251892 105.959473 10 10
544.043884 186.663879 10 10
529.084595 263.003662 10 10
517.649658 284.018280 10 10
587.080261 295.472931 10 10
596.991272 288.307587 10 10
frame0468
580.142761 80.739189 10 10
565.573303 106.021149 10 10
544.077148 186.652298 10 10
529.083923 263.006256 10 10
517.649658 284.019653 10 10
587.090149 295.691162 10 10
596.985291 288.257996 10 10
frame0469
580.584412 80.853317 10 10
566.041565 106.025131 10 10
544.463257 186.646973 10 10
529.083679 263.008667 10 10
517.650635 284.018646 10 10
587.057922 295.686890 10 10
596.930542 288.324005 10 10
frame0470
581.083923 80.731476 10 10
566.273254 105.977707 10 10
544.712952 186.637695 10 10
529.083618 263.010834 10 10
517.652893 284.015656 10 10
587.056519 295.684143 10 10
596.864014 288.383545 10 10
frame0471
581.599731 80.859177 10 10
566.825256 106.036201 10 10
544.835999 186.639938 10 10
529.079163 263.190155 10 10
517.648987 284.023285 10 10
587.043030 295.693909 10 10
596.975342 288.407013 10 10
frame0472
582.037354 80.925453 10 10
567.256409 106.181038 10 10
545.117920 186.635880 10 10
529.082153 263.187561 10 10
517.649231 284.022705 10 10
587.037659 295.694000 10 10
597.040710 288.600891 10 10
frame0473
582.599915 81.074554 10 10
567.828979 105.920242 10 10
545.336731 186.792694 10 10
529.186462 263.183197 10 10
517.657166 284.010406 10 10
587.188477 295.742859 10 10
596.941101 288.399078 10 10
frame0474
583.252686 81.081711 10 10
568.249756 106.177605 10 10
545.510803 186.790482 10 10
529.187378 263.179321 10 10
517.653503 283.505646 10 10
587.254639 295.987579 10 10
596.992493 288.548157 10 10
frame0475
583.739807 81.085022 10 10
568.856384 106.170967 10 10
545.760620 186.780380 10 10
529.188477 263.178833 10 10
517.653992 283.502258 10 10
587.141296 296.023682 10 10
597.024048 288.544342 10 10
frame0476
584.292175 81.369102 10 10
569.259521 106.428688 10 10
545.885437 186.804993 10 10
529.190002 263.177673 10 10
517.653015 283.505493 10 10
587.237305 295.968597 10 10
597.017822 288.562103 10 10
frame0477
584.813171 81.360985 10 10
569.830811 106.377174 10 10
546.085083 186.777542 10 10
529.191650 263.176025 10 10
517.654297 283.503998 10 10
587.237183 295.969513 10 10
596.956238 288.615967 10 10
