^C:\USERS\USER\DOCUMENTS\VISUAL STUDIO 2013\PROJECTS\OPENCVHW4\OPENCVHW4\STDAFX.CPP
/c /ZI /nologo /W3 /WX- /sdl /Od /Oy- /D WIN32 /D _WINDOWS /D _DEBUG /D _CRT_SECURE_NO_WARNINGS /D _UNICODE /D UNICODE /Gm /EHsc /RTC1 /MTd /GS /fp:precise /Zc:wchar_t /Zc:forScope /Yc"stdafx.h" /Fp"DEBUG\OPENCVHW4.PCH" /Fo"DEBUG\\" /Fd"DEBUG\VC120.PDB" /Gd /TP /analyze- C:\USERS\USER\DOCUMENTS\VISUAL STUDIO 2013\PROJECTS\OPENCVHW4\OPENCVHW4\STDAFX.CPP
^C:\USERS\USER\DOCUMENTS\VISUAL STUDIO 2013\PROJECTS\OPENCVHW4\OPENCVHW4\OPENCVHW4.CPP
/c /ZI /nologo /W3 /WX- /sdl /Od /Oy- /D WIN32 /D _WINDOWS /D _DEBUG /D _CRT_SECURE_NO_WARNINGS /D _UNICODE /D UNICODE /Gm /EHsc /RTC1 /MTd /GS /fp:precise /Zc:wchar_t /Zc:forScope /Yu"stdafx.h" /Fp"DEBUG\OPENCVHW4.PCH" /Fo"DEBUG\\" /Fd"DEBUG\VC120.PDB" /Gd /TP /analyze- C:\USERS\USER\DOCUMENTS\VISUAL STUDIO 2013\PROJECTS\OPENCVHW4\OPENCVHW4\OPENCVHW4.CPP
^C:\USERS\USER\DOCUMENTS\VISUAL STUDIO 2013\PROJECTS\OPENCVHW4\OPENCVHW4\OPENCVHW4DLG.CPP
/c /ZI /nologo /W3 /WX- /sdl /Od /Oy- /D WIN32 /D _WINDOWS /D _DEBUG /D _CRT_SECURE_NO_WARNINGS /D _UNICODE /D UNICODE /Gm /EHsc /RTC1 /MTd /GS /fp:precise /Zc:wchar_t /Zc:forScope /Yu"stdafx.h" /Fp"DEBUG\OPENCVHW4.PCH" /Fo"DEBUG\\" /Fd"DEBUG\VC120.PDB" /Gd /TP /analyze- C:\USERS\USER\DOCUMENTS\VISUAL STUDIO 2013\PROJECTS\OPENCVHW4\OPENCVHW4\OPENCVHW4DLG.CPP
